STOPID	PLANVERSIONID	SHORTNAME	LONGNAME	GPS_X	GPS_Y	DECIMALLONGITUDE	DECIMALLATITUDE	PASSANGERS_NUM	TYPE_BUS
513080	40	K3C65B	Kr 3 entre Cl 65B y 69	-762916872	32810626	-76.48802	3.46961833	52	1
513081	40	C70K31	Cl 70 entre Kr 3 y 4C	-762909624	32808934	-76.48600667	3.46914833	19	1
513082	40	K5C70	Kr 5 entre Cl 70 y69	-762911100	32801656	-76.48641667	3.46712667	90	2
513083	40	K5C65A	Kr 5 entre Cl 65A y 64B	-762918360	32759532	-76.48843333	3.46653667	49	1
513084	40	K5C62B	Kr 5 entre Cl 62B y 62	-762924690	32757576	-76.49019167	3.46599333	88	1
513085	40	C62K4C	Cl 62 entre Kr 4C y 4B	-762928050	32803024	-76.491125	3.46750667	46	1
513086	40	K1C58Y56	Kr 1 entre Cl 58 y 56	-763006456	32843804	-76.50179333	3.47883444	66	2
513087	40	C56K4N	Cl 56 entre Kr 4N y 5N	-763013968	32850146	-76.50388	3.48059611	63	3
513089	40	C56K1B	Cl 56 entre Kr 1B y 1C	-763001716	32832207	-76.50047667	3.47561306	49	2
513092	40	K2C53	Kr 2 entre Cl 53 y 52B	-763002034	32807182	-76.500565	3.46866167	41	2
513093	40	C52K2B2	Cl 52 entre Kr 2B2 y 2E	-763005664	32757876	-76.50157333	3.46607667	47	3
513094	40	K3C52	Kr 3 entre Cl 52 y 53	-762959093	32757051	-76.49974806	3.4658475	92	3
513095	40	K3C56	Kr 3 entre Cl 56 y 57	-762951192	32759976	-76.49755333	3.46666	3	1
513096	40	K3C60	Kr 3 entre Cl 60 y 59D	-762935238	32805682	-76.49312167	3.468245	10	3
513097	40	K3C59	Kr 3 entre Cl 59 y 58	-762944100	32802952	-76.49558333	3.46748667	50	1
513098	40	K3C57	Kr 3 entre Cl 57 y 58	-762951528	32800528	-76.49764667	3.46681333	54	3
513099	40	K3C54	Kr 3 entre Cl 54 y 53	-762957552	32758452	-76.49932	3.46623667	40	1
513101	40	C52K2	Cl 52 entre Kr 3 y 2	-763005706	32802214	-76.501585	3.46728167	91	3
513102	40	C52K1E	Cl 52 entre Kr 1E y 1D2	-763008424	32812024	-76.50234	3.47000667	60	3
513103	40	C70K7	Cl 70 entre Kr 7 y 5	-762904278	32802034	-76.48452167	3.46723167	91	3
513104	40	C70K5	Cl 70 entre Kr 5 y 7	-762906966	32800618	-76.48526833	3.46683833	94	3
513105	40	C70K4	Cl 70 entre Kr 4 y 3D	-762906666	32809546	-76.485185	3.46931833	76	3
513106	40	C70K3	Cl 70 entre Kr 3 y 4C	-762909546	32808682	-76.485985	3.46907833	99	2
513107	40	C70K2-1	Cl 70 entre Kr 2 y 1J	-762911226	32824084	-76.48645167	3.47335667	53	3
513110	40	C70K1A14	Cl 70 entre Kr 1A14 y 1B	-762920766	32844322	-76.48910167	3.47897833	65	1
513111	40	C70K1A51	Cl 70 entre Kr 1A6 y A5	-762925806	32903774	-76.49050167	3.48438167	7	3
513112	40	C70K1A6	Cl 70 entre Kr 1 y 1A6	-762927648	32902064	-76.49101333	3.48390667	24	2
513113	40	C70K1	Cl 70 con Kr 1	-762941634	32910416	-76.49489833	3.48622667	76	1
513114	40	C70K11	Cl 70 con Kr 1 1	-762943260	32908804	-76.49535	3.48577889	28	2
513118	40	K5C28	Kr 5 entre Cl 28 y 29	-763103270	32727306	-76.517575	3.457585	13	1
513119	40	K5C32	Kr 5 entre Cl 32 y 33	-763051498	32730546	-76.514305	3.458485	75	3
513120	40	K5C35	Kr 5 entre Cl 35 y 34	-763047004	32732364	-76.51305667	3.45899	14	3
513121	40	K5C34	Kr 5 entre Cl 34 y 35	-763046302	32732256	-76.51286167	3.45896	31	3
513122	40	K5C38	Kr 5 entre Cl 38 y 36A	-763039114	32735010	-76.510865	3.459725	85	3
513123	40	K5C37	Kr 5 entre Cl 37 y 38	-763038016	32734848	-76.51056	3.45968	82	2
513124	40	K5C44	Kr 5 entre Cl 44 y 43	-763027648	32738712	-76.50768	3.46075333	75	3
513127	40	K5C46	Kr 5 entre Cl 46 y 47	-763012522	32742798	-76.50347833	3.46188833	22	3
513128	40	C52K5	Cl 52 entre Kr 5 y 4C	-763002258	32747817	-76.50062722	3.4632825	72	2
513129	40	K2C52	Kr 2 entre Cl 52 y 56	-763002178	32806528	-76.500605	3.46848	62	3
513131	40	K2C572	Kr 2 entre Cl 57 y 58	-762951534	32809648	-76.49764833	3.46934667	87	2
513132	40	K2C60	Kr 2 entre Cl 60 y 59B	-762942762	32813272	-76.49521167	3.47035333	78	2
513133	40	K2C592	Kr 2 entre Cl 59A y 60	-762943242	32812324	-76.495345	3.47009	72	1
513134	40	K2C621	Kr 2 entre Cl 62 y 60	-762935454	32815456	-76.49318167	3.47096	56	3
513135	40	K2C61A2	Kr 2 entre Cl 61A y 62	-762934572	32815108	-76.49293667	3.47086333	65	1
513136	40	K2C641	Kr 2 entre Cl 64 y 62	-762927906	32817580	-76.491085	3.47155	15	3
513137	40	K2C64	Kr 2 entre Cl 62 y 65	-762926082	32817766	-76.49057833	3.47160167	91	1
513138	40	K2C671	Kr 2 entre Cl 67 y 66	-762921792	32819542	-76.48938667	3.472095	17	3
513139	40	K2C65	Kr 2 entre Cl 65 y 67	-762919758	32819650	-76.48882167	3.472125	67	2
513140	40	C70K2-2	Cl 70 entre Kr 2 y 2A	-762913261	32820105	-76.48701694	3.47225139	36	2
513141	40	C73K7	Cl 73 entre Kr 7 y 2F	-762848772	32808289	-76.48021444	3.46896917	9	3
513142	40	C73K2F	Cl 73 entre Kr 2F y 2E	-762852346	32816453	-76.48120722	3.47123694	80	3
513143	40	C73K1I	Cl 73 entre Kr 1I y 1J	-762857972	32827954	-76.48277	3.47443167	38	1
513144	40	C73K1G	Cl 73 entre Kr 1G y 1F	-762900330	32835622	-76.483425	3.47656167	39	1
513147	40	C52K3Y4B	Cl 52 entre Kr 3 y 4B	-763004588	32752956	-76.50127444	3.46471	2	1
513148	40	K5C52	Kr 5 entre Cl 52 y 47	-763007344	32744808	-76.50204	3.46244667	23	2
513149	40	C34K6A	Cl 34 entre Kr 6A y 7	-763046368	32725908	-76.51288	3.45719667	92	2
513150	40	C73K1D	Cl 73 entre Kr 1D y 1C1	-762902598	32842222	-76.484055	3.478395	74	1
513151	40	C73K1A14	Cl 73 entre Kr 1A14 y 1A13	-762905958	32852956	-76.48498833	3.48137667	34	2
513152	40	C73K1A82	Cl 73 entre Kr 1A8 y 1A7	-762909048	32902124	-76.48584667	3.48392333	96	1
513156	40	K1AC70	Kr 1A entre Cl 70 y 70A	-762939900	32912688	-76.49441667	3.48685778	99	2
513157	40	K1C70A1	Kr 1 entre Cl 70A y 71	-762933985	32923097	-76.49277361	3.48974917	98	2
513158	40	C73K1B21	Cl 73 entre Kr 1B2 y 1B3	-762905424	32846056	-76.48484	3.47946	46	2
513159	40	C73K1E	Cl 73 entre Kr 1E y 1F	-762902436	32836186	-76.48401	3.47671833	53	3
513160	40	C73K2A	Cl 73 entre Kr 2A y 2B	-762858626	32824432	-76.48295167	3.47345333	89	3
513161	40	C73AK3	Cl 73A entre Kr 3 y 4	-762855044	32817574	-76.48195667	3.47154833	57	1
513162	40	C73AK5	Cl 73A con Kr 5	-762850040	32807854	-76.48056667	3.46884833	96	3
513163	40	C73K1A2C	Cl 73 entre Kr 1A2C y 1A2B	-762915282	32922224	-76.48757833	3.48950667	74	3
513164	40	C62K1BIS	Cl 62 entre Kr 1Bis y 1A	-762950337	32847489	-76.49731583	3.47985806	5	2
513166	40	C62AK1B4	Cl 62A entre Kr 1B4 y 1B5	-762936377	32835368	-76.49343806	3.47649111	24	3
513167	40	C62AK1A8	Cl 62A entre Kr 1A8 y 1A7	-762934259	32844801	-76.49284972	3.47911139	42	1
513168	40	C66K1A15	Cl 66 con Kr 1A15	-762929110	32846015	-76.49141944	3.47944861	35	2
513172	40	K5NC67N	Kr 5N entre Cl 67 y 65	-763004819	32907003	-76.50133861	3.48527861	94	1
513182	40	K1C47Y50	Kr 1 entre Cl 47N y 50N	-763023589	32825087	-76.5065525	3.47363528	4	1
513183	40	C62K1B	Cl 62 con K1B	-762940647	32838234	-76.49462417	3.47728722	64	3
513185	40	K1C56	Kr 1 entre Cl 56 y 57 Comfandi IPS	-763004059	32843758	-76.5011275	3.47882167	98	2
513186	40	C56K1C	Cl 56 entre Kr 1D y 1C	-762958662	32824518	-76.49962833	3.47347722	47	1
513187	40	C56K1C1	Cl 56 entre Kr 1C y 1B	-763000783	32832369	-76.5002175	3.47565806	35	1
513188	40	K5C55	Kr 5 entre Cl55 y 54	-762953333	32748794	-76.49814806	3.46355389	89	3
513189	40	K5C59	Kr 5 entre Cl 59 y 58	-762942174	32752159	-76.49504833	3.46448861	18	3
513190	40	K5C62	Kr 5 entre Cl 62 y 60	-762932814	32754942	-76.49244833	3.46526167	93	2
513191	40	C52K7N	Cl 52 entre Kr 7N y 9N	-763026692	32846448	-76.50741444	3.47956889	91	3
513192	40	C52K1-1D	Cl 52 entre Kr 1 y 1D	-763013771	32828147	-76.50382528	3.47448528	56	3
513195	40	K2C49	Kr 2 entre Cl 49 y 47	-763014081	32803332	-76.50391139	3.46759222	49	1
516068	40	C13K44	Cl 13 entre Kr 44 y 44A	-763158242	32450346	-76.532845	3.413985	79	1
516069	40	C13K41A1	Cl 13 entre Kr 41A y 42	-763154984	32500258	-76.53194	3.41673833	13	1
516070	40	C13K41A2	Cl 13 entre Kr 41A y 41	-763154654	32500204	-76.53184833	3.41672333	2	2
516071	40	C13K37	Cl 13 entre Kr 37 y 38	-763150583	32514395	-76.5307175	3.42066528	89	2
516072	40	C13K39	Cl 13 entre Kr 39 y 38	-763151024	32511226	-76.53084	3.419785	29	2
516073	40	C13K341	Cl 13 entre Kr 34 y 35	-763147991	32522736	-76.5299975	3.42298222	88	3
516074	40	C13K342	Cl 13 entre Kr 34 y 33A	-763146398	32525170	-76.529555	3.42365833	37	2
516076	40	C13K32A	Cl 13 entre Kr 32 y 31	-763143265	32534954	-76.52868472	3.42637611	32	1
516077	40	C13K32	Cl 13 entre Kr 32 y 33	-763145498	32530149	-76.529305	3.42504139	2	3
516078	40	C13C141	Cl 13 con Cl 141	-763139654	32545487	-76.52768167	3.42930194	43	3
516079	40	C13C14	Cl 13 con Cl 14	-763138159	32546191	-76.52726639	3.4294975	80	3
516080	40	K46C522	Kr 46 entre Cl 52 y 51A	-763029940	32357544	-76.50831667	3.39931778	56	2
516081	40	K46C48	Kr 46 entre Cl 48 y 47	-763039656	32407802	-76.51101556	3.40216722	52	2
516082	40	K46C462	Kr 46 entre Cl 46 y 45	-763043681	32411817	-76.51213361	3.4032825	55	3
516084	40	K46C452	Kr 46 entre Cl 45 y 44	-763047698	32416144	-76.51324944	3.40448444	19	1
516085	40	K46C42A1	Kr 46 entre Cl 42 y 43	-763052083	32420014	-76.5144675	3.40555944	95	2
516086	40	K46C42A2	Kr 46 entre Cl 42A y 42	-763052368	32421120	-76.51454667	3.40586667	64	3
516088	40	K46C402	Kr 46 entre Cl 40 y 39	-763059458	32428575	-76.51651611	3.4079375	77	3
516089	40	K46C371	Kr 46 entre Cl 37 y 38A	-763103403	32431654	-76.51761194	3.40879278	67	2
516090	40	K46C372	Kr 46 entre Cl 37 y 36	-763103120	32432784	-76.51753333	3.40910667	63	2
516091	40	C27K431	Cl 27 entre Kr 43A y 45A	-763105854	32436680	-76.51829278	3.41018889	39	1
516092	40	C27K36	Cl 27 entre Kr 36 y 44	-763104860	32438844	-76.51801667	3.41079	22	2
516093	40	C27K42B1	Cl 27 entre Kr 42B y 43	-763104806	32445822	-76.51800167	3.41272833	98	2
516094	40	C27K42B2	Cl 27 entre Kr 42B y 42A	-763103750	32448978	-76.51770833	3.413605	10	2
516095	40	C27K421	Cl 27 entre Kr 41D y 42	-763104140	32452941	-76.51781667	3.41470583	21	3
516096	40	C27K422	Cl 27 entre Kr 42 y 41D	-763103553	32453320	-76.51765361	3.41481111	88	2
516098	40	C27K412	Cl 27 entre Kr 41 y 40B	-763102628	32502214	-76.51739667	3.41728167	64	2
516099	40	C27K371	Cl 27 entre Kr 37A y 39	-763102874	32510595	-76.517465	3.41960972	60	3
516100	40	C27K392	Cl 27 entre Kr 39 y 37	-763102217	32511163	-76.5172825	3.4197675	10	2
516101	40	C46K461	Cl 46 entre Kr 46 y 45	-763042101	32412508	-76.51169472	3.40347444	4	3
516103	40	C46K42C2	Cl 46 entre Kr 42C y 42B	-763032472	32421576	-76.50902	3.40599333	87	1
516104	40	C46K41E2	Cl 46 entre Kr 41E y 41D	-763027528	32426309	-76.50764667	3.40730806	75	2
516105	40	C46K41A2	Cl 46 entre Kr 41A y 41	-763022491	32431140	-76.5062475	3.40865	50	2
516106	40	K41BC46	Kr 41B entre Cl 46 y 47	-763017599	32431458	-76.50488861	3.40873833	26	3
516107	40	C54K41DE	Cl 54 entre Kr 41D y 41E	-763010972	32411891	-76.50304778	3.40330306	81	3
516108	40	C54K42B1	Cl 54 entre Kr 42B y 42C	-763019038	32404338	-76.50528833	3.401205	45	2
516110	40	C13K671	Cl 13 entre Kr 67 y 68	-763217418	32345606	-76.53817167	3.39600167	38	3
516112	40	K42C26	Kr 42 entre Cl 25 y 26B	-763114085	32451246	-76.52057917	3.414235	100	3
516119	40	K56C18	Kr 56 entre Cl 18 y 18A	-763131075	32406008	-76.52529861	3.40166889	14	2
516120	40	C25K56	Cl 25 entre Kr 56 y 61	-763125232	32402695	-76.52367556	3.40074861	24	3
516122	40	C10K50	Cl 10 entre Kr 50 y 53	-763221918	32432106	-76.53942167	3.40891833	51	2
516124	40	K66C17	Kr 66 entre Cl 17 y 18	-763134626	32350030	-76.526285	3.39723056	82	3
516127	40	K56C18A	Kr 56 entre Cl 18A y 18	-763131249	32406834	-76.52534694	3.40189833	22	2
516128	40	K56C16	Kr 56 entre Cl 16 y 15	-763141966	32410337	-76.52832389	3.40287139	12	1
516129	40	C14K58	Cl 14 entre Kr 58 y 65	-763155159	32406374	-76.53198861	3.40177056	53	3
516130	40	C14K65	Cl 14 entre Kr 65 y 65C	-763156895	32358027	-76.53247083	3.39945194	60	2
516131	40	K50C9	Kr 50 entre Cl 9 y 9B	-763227396	32438790	-76.54094333	3.410775	18	2
516132	40	K50C12A	Kr 50 entre C12A y 13	-763207706	32432198	-76.53547389	3.40894389	47	2
516134	40	K42C26D	Kr 42 entre Cl 26D y 27	-763106463	32451476	-76.51846194	3.41429889	18	1
516137	40	K44C12	Kr 44 entre Cl 12 y 12B	-763204009	32453378	-76.53444694	3.41482722	46	2
516138	40	C25K70	Cl 25 entre Kr 70 y 69 Hacienda	-763125248	32334321	-76.52368	3.39286694	99	3
516139	40	C25K69A	Cl 25 entre Kr 69A y 70 Clinica Comfandi	-763127749	32334007	-76.52437472	3.39277972	60	3
516140	40	C25K69	Cl 25 entre Kr 69 y 68B	-763124430	32345006	-76.52345278	3.395835	84	2
516141	40	K69C26	Kr 69 entre Cl 26 y 29	-763119433	32340421	-76.52206472	3.39456139	55	1
516142	40	C42K69	Cl 42 entre Kr 69 y 68	-763107588	32340568	-76.51877444	3.39460222	48	2
516143	40	C42K63	Cl 42 entre Kr 63 y 55	-763102481	32345467	-76.51735583	3.39596306	73	3
516144	40	K50C41	Kr 50 entre Cl 41 y 40A	-763102755	32351300	-76.51743194	3.39758333	81	1
516145	40	D65K50	Dg 65 entre Kr 50 y 33	-763116969	32356989	-76.52138028	3.39916361	81	3
516146	40	C16K65	Cl 16 entre Kr 65 y 62	-763139364	32358470	-76.52760111	3.399575	18	3
516147	40	C16K56	Cl 16 entre Kr 56 y 53	-763138358	32415179	-76.52732167	3.40421639	74	2
516148	40	C16K49A	Cl 16 entre Kr 49A y 49	-763135587	32427527	-76.52655194	3.40764639	35	1
516149	40	C16K46A	Cl 16 entre Kr 46A y 46	-763132120	32438477	-76.52558889	3.41068806	42	1
516150	40	C17K37A	Cl 17 entre Kr 37A y 38	-763126855	32513268	-76.52412639	3.42035222	95	3
516151	40	C17K33A	Cl 17 entre Kr 33A y 33	-763127402	32525376	-76.52427833	3.42371556	10	2
516152	40	C17K32	Cl 17 entre Kr 32 y 31A	-763127756	32533619	-76.52437667	3.42600528	48	2
516153	40	C17K29B	Cl 17 entre Kr 29B y 29A	-763128195	32541776	-76.52449861	3.42827111	38	2
516154	40	K25C18	Kr 25 entre Cl 18 y 13A	-763132001	32549928	-76.52555583	3.43053556	69	2
516155	40	K25C18A	Kr 25 entre Cl 18A y 18	-763129712	32551577	-76.52492	3.43099361	85	3
516156	40	C15K29A	Cl 15 entre Kr 29A y 30	-763134147	32539160	-76.52615194	3.42754444	21	3
516157	40	C15K33	Cl 15 entre Kr 33 y 33A	-763133505	32525461	-76.52597361	3.42373917	87	1
516159	40	K35C18	Kr 35 entre Cl 18 y 19	-763122073	32517873	-76.52279806	3.42163139	89	1
516160	40	C23K36C	Cl 23 entre Kr 36C y 39	-763119194	32511548	-76.52199833	3.41987444	67	2
516161	40	C23K40A	Cl 23 entre Kr 40A y 40B	-763120145	32502666	-76.5222625	3.41740722	61	2
516162	40	C23K42A	Cl 23 entre Kr 42A y 42B	-763121873	32447235	-76.5227425	3.41312083	74	3
516163	40	C23K45	Cl 23 entre Kr 45 y 46	-763122949	32437281	-76.52304139	3.41035583	59	2
516164	40	C23K49	Cl 23 entre Kr 49 y 49A	-763124225	32425347	-76.52339583	3.40704083	2	1
516165	40	K50C18	Kr 50 entre Cl 18 y 17A	-763130670	32421356	-76.52518611	3.40593222	46	1
516166	40	C16K53	Cl 16 entre Kr 53 y 56	-763139085	32415135	-76.52752361	3.40420417	71	2
516167	40	C16K561	Cl 16 entre Kr 56 y 65	-763140153	32400229	-76.52782028	3.40006361	56	1
516168	40	C36K40	Cl 36 entre Kr 40 y  40A	-763037459	32503023	-76.51040528	3.41750639	65	3
516169	40	C36K41A	Cl 36 entre Kr 41A y 41B	-763042424	32458220	-76.51178444	3.41617222	18	2
516171	40	C36K44	Cl 36 entre Kr 43 y 44	-763101052	32440335	-76.51695889	3.41120417	58	2
516177	40	C13K69	Cl 13 entre Kr 69 y 68	-763216975	32341488	-76.53804861	3.39485778	83	2
516179	40	K39C14	Kr 39 entre Cl 14 y 13C	-763142212	32506792	-76.52839222	3.41855333	25	2
516181	40	K39C192	Kr 39 entre Cl 19 y 18	-763123724	32507502	-76.52325667	3.41875056	71	1
516182	40	C25K47	Cl 25 entre Kr 47 y 46C	-763118480	32430832	-76.5218	3.40856444	11	3
516183	40	C25K45	Cl 25 entre Kr 45 y 44A	-763117647	32438440	-76.52156861	3.41067778	8	1
516184	40	C16K69	Cl 16 entre Kr 69 y 68	-763140468	32341139	-76.52790778	3.39476083	2	1
516185	40	K66C13E	Kr 66 entre Cl 13E y 13D	-763202416	32353194	-76.53400444	3.39810944	13	2
516186	40	K66C13B	Kr 66 entre Cl 13B y 13	-763211844	32353269	-76.53662333	3.39813028	6	1
516187	40	K66C131	Kr 66 entre Cl 13 y 12	-763219604	32353318	-76.53877889	3.39814389	53	3
516192	40	C25K731	Cl 25 entre Kr 73 y 70	-763126352	32326466	-76.52398667	3.390685	53	3
516193	40	C25K73	Cl 25 entre Kr 70 y 73	-763128260	32326256	-76.52451667	3.39062667	17	3
516194	40	C25K68A	Cl 25 entre Kr 68A y 68	-763123424	32346866	-76.52317333	3.39635167	77	2
516195	40	C25K66	Cl 25 entre Kr 66 y 68	-763127786	32344298	-76.524385	3.39563833	48	1
516196	40	C25D66	Cl 25 entre Dg 66 y 65	-763122752	32354000	-76.52298667	3.39833333	40	2
516197	40	K66C18	Kr 66 entre Cl 18 y 16	-763134642	32350530	-76.52628944	3.39736944	69	2
516198	40	K66C16	Kr 66 entre Cl 16 y 14C	-763143304	32351596	-76.52869556	3.39766556	86	3
516202	40	C14K66	Cl 14 entre Kr 66 y 65	-763155940	32356591	-76.53220556	3.39905306	55	2
516203	40	C14K64B	Cl 14 entre Kr 64Bis y 64A	-763154060	32406828	-76.53168333	3.40189667	72	3
516204	40	C14K56	Cl 14 entre Kr 56 y 54	-763151802	32415933	-76.53105611	3.40442583	5	1
516205	40	C14K54	Cl 14 entre Kr 54 y 56	-763152354	32416660	-76.53120944	3.40462778	100	2
516206	40	C14K53	Cl 14 entre Kr 53 y 50	-763149798	32423527	-76.53049944	3.40653528	76	3
516207	40	C14K50	Cl 14 entre Kr 50 y 53	-763150365	32424650	-76.53065694	3.40684722	46	1
516209	40	C14K47	Cl 14 entre Kr 47 y 50	-763147077	32435878	-76.52974361	3.40996611	98	3
516211	40	C14K442	Cl 14 entre Kr 44 y 45	-763144610	32444742	-76.52905833	3.41242833	41	2
516212	40	C14K43	Cl 14 entre Kr 43 y 42	-763141215	32454256	-76.52811528	3.41507111	51	2
516213	40	C14K42BS	Cl 14 entre Kr 42Bs y 43	-763141943	32454304	-76.5283175	3.41508444	14	1
516214	40	C14K40A	Cl 14 entre Kr 40A y 40	-763139417	32501139	-76.52761583	3.41698306	57	2
516215	40	C14K40	Cl 14 entre Kr 40 y 40A	-763139709	32502397	-76.52769694	3.4173325	9	1
516216	40	C14K38A	Cl 14 entre Kr 38A y 37A	-763138300	32508883	-76.52730556	3.41913417	61	3
516217	40	C14K37	Cl 14 entre Kr 37 y 39	-763138992	32509886	-76.52749778	3.41941278	53	3
516218	40	C14K34	Cl 14 entre Kr 34 y 33A	-763138986	32522438	-76.52749611	3.42289944	48	3
516219	40	C14K33A	Cl 14 entre Kr 33A y 34	-763139690	32521831	-76.52769167	3.42273083	32	1
516220	40	C14K32	Cl 14 entre Kr 32 y 31	-763139549	32533708	-76.5276525	3.42603	89	1
516221	40	C14K31	Cl 14 entre Kr 31 y 32	-763140378	32533707	-76.52788278	3.42602972	2	3
516224	40	C14K72	Cl 14 entre Kr 72 y 75	-763157336	32325002	-76.53259333	3.39027833	74	1
516225	40	C14K76	Cl 14 entre Kr 76 y 73	-763156682	32323616	-76.53241167	3.38989333	25	2
516226	40	C14K69A	Cl 14 entre Kr 69A y 70	-763157174	32338097	-76.53254833	3.39391583	66	1
516227	40	C14K70	Cl 14 entre Kr 70 y 69A	-763156421	32338681	-76.53233917	3.39407806	8	3
516230	40	C25K561	Cl 25 entre Kr 56 y 61	-763124515	32403277	-76.52347639	3.40091028	72	3
516231	40	K56C14	Kr 56 entre Cl 14 y 14C	-763149304	32412000	-76.53036222	3.40333333	51	3
516232	40	K56C15	Kr 56 entre Cl 15 y 16	-763143134	32409928	-76.52864833	3.40275778	51	2
516233	40	K56C7A	Kr 56 entre Cl 7A y 6A	-763241638	32429723	-76.54489944	3.40825639	76	3
516234	40	C25K41	Cl 25 entre Kr 41 y 40B	-763122278	32404713	-76.522855	3.40130917	69	2
516235	40	C13K29B	Cl 13 entre Kr 29B y 31	-763142656	32538933	-76.52851556	3.42748139	87	2
516236	40	C14K6867	Cl 14 entre Kr 68 y 67	-763156268	32348200	-76.53229667	3.39672222	53	2
516237	40	C14K49	Cl 14 entre Kr 49 y 48	-763147082	32433376	-76.529745	3.40927111	74	1
516238	40	C14K46	Cl 14 entre Kr 46 y 45	-763144355	32443253	-76.5289875	3.41201472	27	3
516239	40	K39C15	Kr 39 entre Cl 15 y 14C	-763134797	32506199	-76.5263325	3.41838861	53	2
516240	40	K39C26C	Kr 39 entre Cl 26C y 26E	-763106022	32509385	-76.51833944	3.41927361	79	3
517002	40	C8K10	Cl 8 entre Kr 10 y 12	-763202574	32646512	-76.53404833	3.44625333	75	2
517006	40	K56C82	Kr 56 entre Cl 8 y 9	-763236280	32427395	-76.54341111	3.40760972	42	2
517007	40	C9K512	Cl 9 entre Kr 53 y  52A	-763231258	32434422	-76.54201611	3.40956167	65	1
517008	40	C9K502	Cl 9 entre Kr 50 y 48	-763227728	32446177	-76.54103556	3.41282694	78	2
517009	40	C9K462	Cl 9 entre Kr 46 y 44	-763224732	32456046	-76.54020333	3.41556833	83	2
517011	40	K39C9A1	Kr 39 entre Cl 9A y 9	-763215056	32516655	-76.53751556	3.42129306	72	1
517012	40	K39C61	Kr 39 entre Cl 6 y 5F	-763233207	32520947	-76.5425575	3.42248528	72	2
517013	40	K39C5B1	Kr 39 entre Cl 5B y 5A	-763242414	32525638	-76.545115	3.42378833	44	2
517014	40	K52C31	Kr 52 entre Cl 3 y 2	-763310096	32455719	-76.55280444	3.4154775	57	2
517015	40	K52C22	Kr 52 entre Cl 2 y 3	-763309706	32455116	-76.55269611	3.41531	25	3
517016	40	C1K521	Cl 1 entre Kr 52 y 53	-763318444	32454558	-76.55512333	3.415155	18	3
517018	40	C1K55B1	Cl 1 entre Kr 55B y 56	-763320699	32441588	-76.55574972	3.41155222	52	2
517019	40	C1K552	Cl 1 entre Kr 55 y 54	-763320286	32441727	-76.555635	3.41159083	78	2
517020	40	C1K591	Cl 1 entre Kr 59 y 60	-763320916	32427180	-76.55581	3.40755	20	2
517021	40	C1K592	Cl 1 entre Kr 59 y 60 2	-763320274	32426586	-76.55563167	3.407385	49	1
517023	40	C1K622	Cl 1 entre Kr 61 y 62	-763320937	32419319	-76.55581583	3.40536639	89	2
513197	40	K1DC56-1	Kr 1D entre Cl 56 y 58	-762955982	32821951	-76.49888389	3.47276417	66	2
517026	40	C1K64A2	Cl 1 entre Kr 64A y 65A	-763324372	32400719	-76.55677	3.40019972	4	1
517027	40	C1K66B1	Cl 1 entre Kr 66B y 67	-763325634	32341820	-76.55712056	3.39495	76	1
517028	40	C1K692	Cl 1 entre Kr 69 y 67	-763324936	32340806	-76.55692667	3.39466833	33	3
517029	40	K70C1OE1	Kr 70 entre Cl 1Oe y 1AOe	-763326280	32333228	-76.5573	3.39256333	5	1
517030	40	C2OEK721	Cl 2Oe entre Kr 72 y 73B	-763328687	32326094	-76.55796861	3.39058167	38	1
517031	40	C2AOK74C	Cl 2AOe entre Kr 74C y 74D	-763330774	32320820	-76.55854833	3.38911667	50	3
517032	40	C2AOEK75	Cl 2AOe entre Kr 75 y 75A	-763331640	32315384	-76.55878889	3.38760667	34	2
517033	40	C1AOEK75	Cl 1AOe entre Kr 75 y 74B	-763326550	32321000	-76.557375	3.38916667	8	1
517034	40	C3OD511	Cl 3O entre Dg 51 y 50	-763322423	32500630	-76.55622861	3.41684167	33	2
517035	40	D50C61	Dg 50 entre Cl 6 y 7	-763328808	32458278	-76.55800222	3.41618833	65	2
517037	40	K52D502	Kr 52 entre Dg 50 y 51	-763334629	32456069	-76.55961917	3.41557472	14	3
517038	40	D51C82	Dg 51 entre Cl 8 y 7	-763330604	32455508	-76.55850111	3.41541889	81	3
517039	40	D51C52	Dg 51 entre Cl 5 y 4	-763324183	32457824	-76.5567175	3.41606222	23	3
517041	40	C2AK62B1	Cl 2A con Kr 62B	-763307338	32412510	-76.55203833	3.403475	88	1
517043	40	C2AK65A1	Cl 2A entre Kr 65A y 66	-763308585	32354075	-76.55238472	3.39835417	16	3
517046	40	C3K64	Cl 3 entre Kr 64 y 63A	-763259064	32404494	-76.54974	3.40124833	50	2
517052	40	C2K532	Cl 2 entre Kr 53 y 52	-763312432	32446728	-76.55345333	3.41298	22	3
517058	40	C1K501	Cl 1 entre Kr 52 y 50	-763314988	32504458	-76.55416333	3.417905	60	1
517059	40	C1K502	Cl 1 entre Kr 50 y Dg 51	-763315642	32504092	-76.554345	3.41780333	1	1
517060	40	C1K461	Cl 1 entre Kr 46 y 45	-763311094	32515102	-76.55308167	3.42086167	82	2
517061	40	C1K462	Cl 1 entre Kr 43A y 44	-763311166	32518570	-76.55310167	3.421825	88	3
517062	40	C1K441	Cl 1 entre Kr 44 y 42	-763309966	32524312	-76.55276833	3.42342	53	3
517063	40	C1K442	Cl 1 entre Kr 39 y 40	-763309156	32528356	-76.55254333	3.42454333	75	2
517064	40	C1K42	Cl 1 entre Kr 42 y 40	-763309217	32527500	-76.55256028	3.42430556	9	2
517065	40	D37C3A1	Dg 37 entre Cl 3A y 4	-763258927	32538338	-76.54970194	3.42731611	21	1
517066	40	D37AC41	Dg 37A entre Cl 4 y 4B	-763250928	32542780	-76.54748	3.42855	46	2
517067	40	C4BK36B1	Cl 4B entre Kr 36B y 36	-763247190	32552200	-76.54644167	3.43116667	78	1
517068	40	K36C4D1	Kr 36 entre Cl 4D y 5	-763238748	32552674	-76.54409667	3.43129833	35	1
517072	40	C5K38A2	Cl 5 entre Kr 38A y 38C	-763245036	32536894	-76.54584333	3.426915	70	3
517083	40	C1AK73B1	Cl 1AOe entre Kr 73B y 73A	-763325980	32325602	-76.55721667	3.390445	60	3
517084	40	C1AOEK73	Cl 1AOe entre Kr 73A y 72	-763325914	32331920	-76.55719833	3.3922	33	2
517090	40	C2AK791	Cl 2A entre Kr 79 y 78	-763306984	32314138	-76.55194	3.38726056	74	2
517091	40	C1CK782	Cl 1C con Kr 78	-763313721	32312868	-76.55381139	3.38690778	40	3
517093	40	C1CK74A2	Cl 1C entre Kr 74A y 74	-763313814	32323591	-76.55383722	3.38988639	18	3
517102	40	C9K65A	Cl 9 entre Kr 65A y 65	-763239582	32356976	-76.54432833	3.39916	40	1
517103	40	C9K63A	Cl 9 entre Kr 63A y 63	-763238454	32408196	-76.544015	3.40227667	53	1
517104	40	C9K61A	Cl 9 entre Kr 61A y 61	-763236214	32417575	-76.54339278	3.40488194	98	3
517105	40	C9K56	Cl 9 entre Kr 56 y 55	-763233160	32427963	-76.54254444	3.4077675	31	1
517107	40	C9K39	Cl 9 entre Kr 39 y 38	-763217801	32519382	-76.53827806	3.42205056	87	1
517108	40	C9K37	Cl 9 entre Kr 37 y 36	-763216218	32530246	-76.53783833	3.42506833	70	3
517109	40	C6K24A	Cl 6 entre Kr 24A y 25	-763219692	32607452	-76.53880333	3.43540333	34	3
517110	40	C6K26	Cl 6 entre Kr 26 y 27	-763219980	32601158	-76.53888333	3.433655	47	3
517111	40	C6K29	Cl 6 entre Kr 29 y 30	-763220322	32553268	-76.53897833	3.43146333	3	1
517113	40	C6K36	Cl 6 entre Kr 34 y 36	-763221840	32540188	-76.5394	3.42783	58	2
517115	40	C6K42	Cl 6 entre Kr 42 y 43	-763234830	32510272	-76.54300833	3.41952	7	2
517117	40	C6K50	Cl 6 entre Kr 50 y Cl 5	-763246626	32449740	-76.546285	3.41381667	95	1
517119	40	K39C7A	Kr 39 entre Cl 7A y 7	-763225494	32518780	-76.540415	3.42188333	41	2
517121	40	K66C10	Kr 66 entre C 9 y 10	-763236305	32352726	-76.54341806	3.39797944	71	1
517122	40	K66C12	Kr 66 entre Cl 12 y 13	-763220214	32352662	-76.53894833	3.39796167	53	2
517123	40	K66C13B2	Kr 66 entre Cl 13B y 13E	-763203053	32352547	-76.53418139	3.39792972	38	2
517125	40	C10K332	Cl 10 entre Kr 33 y 39	-763205166	32523403	-76.53476833	3.4231675	88	2
517126	40	K67C1D	Kr 67 entre Cl 1D y 1C	-763312576	32343067	-76.55349333	3.39529639	42	1
517127	40	K67C1A	Kr 67 entre Cl 1A y 1	-763322858	32341645	-76.55634944	3.39490139	18	2
517128	40	K71C1A	Kr 71 entre Cl 1A y 1C	-763317386	32332232	-76.55482944	3.39228667	42	1
517129	40	C2AK76A	Cl 2A entre Kr 76A y 76	-763304909	32321266	-76.55136361	3.38924056	11	1
517130	40	K76C2C	Kr 76 entre Cl 2C y 3	-763255720	32321023	-76.54881111	3.38917306	77	2
517131	40	C5K7068	Cl 5 entre Kr 70 y 68	-763245097	32341097	-76.54586028	3.39474917	67	2
517132	40	C1K37A	Cl 1 entre Kra 37A y 37	-763303930	32538579	-76.55109167	3.42738306	40	2
517134	40	C10OEK25	Cl 10 Oe con Kr 25D	-763258586	32602984	-76.54960722	3.43416222	50	1
517135	40	C10K36	Cl 10 entre Kr 36 y 37	-763305307	32552312	-76.55147417	3.43119778	92	3
517136	40	C10OEK38	C 10 Oe con Kr 38A	-763307516	32544513	-76.55208778	3.42903139	25	2
517137	40	C1K38E	Cl 1 entre Kr 38C y 38E	-763305640	32535643	-76.55156667	3.4265675	96	2
517138	40	K44C2A	Kr 44 entre Cl 2A y 3A	-763305655	32515306	-76.55157083	3.42091833	53	3
517139	40	K44C3A	Kr 44 entre Cl 3A y 4A	-763257712	32512898	-76.54936444	3.42024944	62	3
517142	40	C1K522	Cl 1 entre Kr 52 y 54	-763320256	32448432	-76.55562667	3.41345333	85	1
517143	40	K56C1AOE	Kr 56 entre Cl 1 y 2 Oe	-763324452	32439948	-76.55679222	3.41109667	4	2
517144	40	K56C7OE	Kr 56 entre Cl 7 y 8 Oe	-763332789	32443877	-76.55910806	3.41218806	2	2
517147	40	C13OEK55	Cl 13OE entre Kr 56 y 55	-763353350	32434336	-76.56481944	3.40953778	50	1
517150	40	D52K54D	Dg 25 entre Kr 54D y 53	-763341683	32452723	-76.56157861	3.41464528	21	2
517151	40	C1K54	Cl 1 entre Kr 52 y 54	-763320285	32448652	-76.55563472	3.41351444	31	1
517152	40	C1K38C	Cl 1 entre Kr 38C y 38D	-763305770	32534261	-76.55160278	3.42618361	14	1
517154	40	K57C3	Kr 57 entre Cl 3 y 2A	-763302777	32430503	-76.55077139	3.40847306	39	2
517155	40	C2AK58	Cl 2A entre Kr 58 y 60	-763305832	32426048	-76.55162	3.40723556	85	3
517156	40	C2K66A	Cl 2 entre Kr 66A y 66B	-763311686	32348498	-76.55324611	3.396805	91	2
517162	40	C3K67	Cl 3 entre Kr 67 y 66B	-763259266	32347796	-76.54979611	3.39661	87	1
517164	40	C3K75	Cl 3 entre Kr 75 y 73	-763256731	32328778	-76.54909194	3.39132722	75	2
517165	40	C3K70	Cl 3 entre Kr 70 y 69	-763258037	32338709	-76.54945472	3.39408583	33	1
517166	40	K55BC3	Kr 55B entre Cl 3 y 1A	-763302235	32437950	-76.55062083	3.41054167	36	2
517167	40	C3K62A4	Cl 3 entre Kr 62A y 62	-763258998	32414406	-76.54972167	3.40400167	32	2
517168	40	K56C3	Kr 56 entre Cl 3 y 1B	-763306768	32434386	-76.55188	3.40955167	6	1
517169	40	K56C1B	Kr 56 entre Cl 3 y 1B	-763314294	32435335	-76.55397056	3.40981528	70	3
517171	40	K39C5Y4	Kr 39 entre Cl 5 y 4	-763251728	32528521	-76.54770222	3.42458917	89	3
517172	40	K39C2A	Kr 39 entre Cl 2A y 2	-763302988	32530491	-76.55083	3.42513639	62	3
516180	40	K39C172	Kr 39 entre Cl 17 y 16	-763129984	32506360	-76.52499556	3.41843333	5	3
517176	40	K56C2OE	Kr 56 entre Cl 2 Oe y 1A Oe	-763324387	32439226	-76.55677417	3.41089611	49	1
517177	40	C1K561	Cl 1 entre Kr 56 y 55	-763320293	32440113	-76.55563694	3.4111425	88	2
517178	40	K56C6A	Kr 56 entre Cl 6A y 5	-763246385	32431312	-76.54621806	3.40869778	85	1
517179	40	K56C8O1	Kr 56 entre Cl 7 Oe y 8 Oe Vivero	-763345961	32435169	-76.56276694	3.40976917	66	2
517180	40	K56BC1	Kr 56 Barrio Ca??averal 1	-763359603	32433466	-76.56655639	3.40929611	58	2
517183	40	K56IDEAS	Colegio Ideas Inicio de Ruta	-763417949	32435439	-76.5716525	3.40984417	36	3
517184	40	K56EC	Kr 56 Entrada Ppal Cementerio	-763413275	32429561	-76.57035417	3.40821139	25	1
517185	40	K56BC2	Kr 56 Barrio Ca??averal 2	-763402848	32430747	-76.56745778	3.40854083	79	1
517186	40	K56BC3	Kr 56 Barrio Ca??averal 3	-763358430	32434301	-76.56623056	3.40952806	73	1
517187	40	K56C8O2	Kr 56 entre Cl 8 Oe y 7 Oe	-763345073	32435468	-76.56252028	3.40985222	12	2
517188	40	K56C8O3	Kr 56 entre Cl 8 Oe y 7 Oe	-763335289	32442457	-76.5598025	3.41179361	61	2
517189	40	K56C5OE	Kr 56 entre Cl 5 Oe y 3 Oe	-763328919	32442367	-76.55803306	3.41176861	44	2
517190	40	C6KDG24	Cl 6 entre Kr 36 y Dg 24	-763224962	32533254	-76.54026722	3.42590389	60	3
517192	40	K42C9	Kr 42 entre Cl 9 y 7	-763225619	32509399	-76.54044972	3.4192775	51	1
517193	40	K42C5E	Kr 42 entre Cl 5E y 5C	-763237412	32513572	-76.54372556	3.42043667	88	1
517194	40	K42C5B	Kr 42 entre Cl 5B y 5A	-763247400	32518491	-76.5465	3.42180306	95	1
517195	40	K42C5	Kr 42 entre Cl 5 y 3A	-763255413	32521413	-76.54872583	3.42261472	87	3
517196	40	K42C2A	Kr 42 entre Cl 2A y 2	-763304442	32524284	-76.55123389	3.42341222	79	1
517197	40	K42C5A	Kr 42 entre Cl 5 y 5A	-763249287	32518816	-76.54702417	3.42189333	62	2
517199	40	K42C7	Kr 42 entre Cl 7 y 8	-763228282	32509680	-76.54118944	3.41935556	29	2
517200	40	K66C101	Kr 66 entre C10 y 9A	-763236003	32353538	-76.54333417	3.398205	23	2
517201	40	K69C21	Kr 69 entre Cl 2 y 2A	-763309681	32338848	-76.55268917	3.39412444	12	3
517202	40	K68C2C	Kr 68 entre Cl 2C y 2D	-763302043	32342111	-76.5505675	3.39503083	15	2
517203	40	D51C13AO	Dg 51 entre Cl 13A Oe y 14 Oe	-763346477	32448281	-76.56291028	3.41341139	16	2
517204	40	D51C14O	Dg 51 entre Cl 14 Oe y 13A Oe	-763348414	32446221	-76.56344833	3.41283917	46	2
517205	40	D51K54D	Dg 51 entre Kr 54D y 53	-763341083	32452689	-76.56141194	3.41463583	53	3
517206	40	K42C2	Kr 42 entre Cl 2 y 2A	-763304459	32523785	-76.55123861	3.42327361	26	3
517207	40	K42C4	Kr 42 entre Cl 4 y 4A	-763255484	32520891	-76.54874556	3.42246972	88	1
517208	40	C6K37A	Cl 6 entre 37A y 38	-763228139	32525561	-76.54114972	3.42376694	72	1
517209	40	K50C5	Kr 50 entre Cl 5 y 6	-763246638	32452658	-76.54628833	3.41462722	57	2
517210	40	K50C53	Kr 50 entre Cl 53 y 53A	-763238247	32446573	-76.5439575	3.41293694	51	3
517211	40	C6K39T5	Cl 6 entre Kr 39 y Tr 5	-763231892	32516788	-76.54219222	3.42133	47	3
517212	40	K56C9C	Kr 56 entre Cl 9C y 9B	-763228174	32425420	-76.54115944	3.40706111	75	1
517213	40	K56C9	Kr 56 entre Cl 9 y 10	-763229446	32425207	-76.54151278	3.40700194	94	3
517215	40	C6K44	Cl 6 entre Kr 44 y 44A	-763238210	32502325	-76.54394722	3.4173125	77	1
517217	40	K56IDEA1	Colegio Ideas 1	-763417869	32436128	-76.57163028	3.41003556	22	2
517218	40	SIRENA1	Via a la Sirena Pte Rojo1	-763421666	32434571	-76.572685	3.40960306	15	2
517219	40	SIRENA2	La Sirena 2	-763430585	32427540	-76.5751625	3.40765	9	3
517220	40	SIRENA3	La Sirena Inicio Ruta	-763430238	32427626	-76.57506611	3.40767389	28	1
517221	40	SIRENA4	Via a la Sirena Pte Rojo2	-763422127	32434095	-76.57281306	3.40947083	98	2
517222	40	C7OK52	Cl 7 Oe entre Kr 52 y 51A	-763333426	32501268	-76.559285	3.41701889	61	3
517223	40	C7OK51A	Cl 7 Oe entre Kr 51A y 52	-763337056	32500353	-76.56029333	3.41676472	95	3
517224	40	D51C14OE	Dg 51 con Cl 14 Oe Cementerio Jardines d	-763357732	32444271	-76.56603667	3.4122975	97	1
517225	40	D51C14E	Dg 51 con Cl 14 Oe Escuela de Carabinero	-763357568	32444079	-76.56599111	3.41224417	95	3
518001	40	C8K141	Cl 8 entre Kr 14 y 14A	-763203426	32633432	-76.534285	3.44262	91	1
518003	40	K39D301	Kr 39 entre Dg 30 y Cl 34C	-763032228	32512039	-76.50895222	3.42001083	7	3
518004	40	K39C31	Kr 39 entre Cl 31 y 29	-763052709	32510872	-76.51464139	3.41968667	7	3
518005	40	K39C312	Kr 39 entre Cl 31A y 32	-763049708	32510073	-76.51380778	3.41946472	16	2
518006	40	K39C32A	Kr 39 entre Cl 32A y 32	-763043269	32511417	-76.51201917	3.41983806	19	2
518007	40	K39C26E1	Kr 39 entre Cl 26E y 26D	-763104974	32510080	-76.51804833	3.41946667	74	2
518009	40	K39C261	Kr 39 entre Cl 26 y 25	-763112396	32509756	-76.52011	3.41937667	5	1
518010	40	K39C262	Kr 39 entre Cl 25 y 26	-763113984	32508652	-76.52055111	3.41907	80	2
518011	40	K39C371	Kr 39 entre Cl 37 y 36	-763027789	32508996	-76.50771917	3.41916556	98	3
518012	40	K39C372	Kr 39 entre Cl 37 y 38	-763027247	32506954	-76.50756861	3.41859833	44	3
518013	40	K39C29	Kr 39 entre Cl 29 y 30	-763057008	32509718	-76.51583556	3.41936611	1	3
518016	40	K23C26B	Kr 23 entre Cl 26B y T25	-763058308	32609084	-76.51619667	3.43585667	28	3
518018	40	K23C33C1	Kr 23 entre Cl 33C y D23	-763043722	32613518	-76.512145	3.43708833	74	3
518019	40	K23T29	Kr 23 entre Tr 29 y C33B	-763043368	32611697	-76.51204667	3.4365825	61	3
518020	40	K23C33F	Kr 23 entre Cl 33F y 33C	-763033322	32616154	-76.50925611	3.43782056	16	1
518021	40	K23C33C	Kr 23 entre Cl 33C y 33F	-763031524	32614940	-76.50875667	3.43748333	83	2
518022	40	K23C361	Kr 23 entre Cl 36 y 34	-763024324	32619062	-76.50675667	3.43862833	56	1
518023	40	K23C36	Kr 23 entre Cl 36 y 38	-763021618	32618036	-76.506005	3.43834333	66	2
518024	40	K23C40	Kr 23 entre Cl 41 y 39	-763017677	32621177	-76.50491028	3.43921583	24	2
518025	40	K23C39	Kr 23 entre Cl 39 y 41	-763016344	32619854	-76.50454	3.43884833	39	1
518027	40	K23C43	Kr 23 entre Cl 43 y 44	-763006900	32623118	-76.50191667	3.439755	48	3
518028	40	K23C54	Kr 23 entre Cl 54 y 55	-762950686	32628686	-76.49741278	3.44130167	18	2
518029	40	K23C60	Kr 23 entre Cl 60 y 61	-762936531	32633828	-76.49348083	3.44273	3	3
518030	40	C70D15	Cl 70 entre Dg 15 y 13	-762921728	32644709	-76.48936889	3.4457525	36	1
518031	40	C52K20	Cl 52 entre Kr 20 y 22	-762958068	32630972	-76.49946333	3.44193667	96	2
518033	40	C27K362	Cl 27 entre Kr 36 y 35	-763101848	32515748	-76.51718	3.42104111	90	3
518034	40	C27K33A1	Cl 27 entre Kr 33 y 33B	-763102022	32522128	-76.51722833	3.42281333	7	3
518035	40	C27K33A2	Cl 27 entre Kr 33A y 33	-763101433	32521397	-76.51706472	3.42261028	86	3
518036	40	C27K31A1	Cl 27 entre Kr 31 y 31B	-763101310	32532834	-76.51703056	3.42578722	18	1
518037	40	C27K31A2	Cl 27 entre Kr 31A y 31	-763100606	32533520	-76.516835	3.42597778	36	1
518039	40	K29C27	Kr 29 entre Cl 27 y 26B	-763101968	32543650	-76.51721333	3.42879167	66	3
518041	40	K29C26B1	Kr 29 entre Cl 26B y 25	-763109882	32544604	-76.51941167	3.42905667	34	3
518043	40	C25K25	Cl 25 entre Kr 25 y 24B	-763110158	32558128	-76.51948833	3.43281333	35	2
518045	40	C28T251	Cl 28 entre Tr 25 y 25C	-763053083	32604690	-76.51474528	3.43463611	42	2
518046	40	C28K24B1	Cl 28 entre Kr 24B y 25	-763058944	32556718	-76.51637333	3.43242167	27	2
518047	40	C27K281	Cl 27 entre Kr 28 y 29	-763100552	32544414	-76.51682	3.42900389	88	1
518048	40	C70K26D	Cl 70 entre Kr 26 y 26D	-762938850	32617408	-76.494125	3.43816889	21	2
518049	40	C70K26E2	Cl 70 entre Kr 26E y 26D	-762939246	32611190	-76.494235	3.43644167	14	1
517025	40	C1K641	Cl 1 entre Kr 64 y 64A	-763324842	32402183	-76.55690056	3.40060639	53	2
518051	40	C70D69	Cl 70 entre Dg 69 y 70	-762943824	32602748	-76.49550667	3.43409667	11	1
518054	40	C70K28A1	Cl 70 entre Kr 28A y 28C	-762955565	32545827	-76.49876806	3.42939639	99	1
518058	40	C70K29	Cl 70 entre Kr 29 y 29A	-763011667	32527567	-76.50324083	3.42432417	20	2
518059	40	C70K29A	Cl 70 entre Kr 29A y 29	-763010381	32526888	-76.50288361	3.42413556	4	1
518060	40	C70K32	Cl 70 entre Kr 32 y 32B	-763018883	32520914	-76.50524528	3.42247611	94	1
518061	40	C70K32A2	Cl 70 entre Kr 32A y32	-763016959	32520508	-76.50471083	3.42236333	92	3
518063	40	C70K39	Cl 70 entre Kr 39 y 36	-763026689	32511142	-76.50741361	3.41976167	61	2
518069	40	K32C34	Kr 32 entre Cl 34 y 35	-763030762	32527462	-76.508545	3.424295	24	3
518070	40	K32C321	Kr 32 entre Cl 32 y 31A	-763044400	32529532	-76.51233333	3.42487	81	3
518071	40	K32C32	Kr 32 entre Cl 32 y 32A	-763040626	32528728	-76.511285	3.42464667	69	3
518072	40	K32C301	Kr 32 entre Cl 30 y 29	-763054216	32530408	-76.51506	3.42511333	75	2
518075	40	K23C28A	Kr 23 entre Cl 28A y 28	-763053951	32611348	-76.51498639	3.43648556	56	3
518076	40	K23C53	Kr 23 entre Cl 54 y 53	-762950081	32630552	-76.49724472	3.44182	55	3
518077	40	K23C49	Kr 23 entre Cl 49 y 48	-763003624	32626060	-76.50100667	3.44057222	68	3
518078	40	C25K39	Cl 25 entre Kr 39 y 37	-763115283	32510731	-76.52091194	3.4196475	68	1
518079	40	C25K34	Cl 25 entre Kr 34 y 33B	-763114269	32521246	-76.52063028	3.42256833	57	3
518080	40	C25K32B	Cl 25 entre Kr 32B y 32A	-763113410	32528774	-76.52039167	3.42465944	75	3
518081	40	K32C26B	Kr 32 entre Cl 26B y 27	-763105978	32530848	-76.51832722	3.42523556	36	2
518082	40	K23T251	Kr 23 entre Tr 25 y Cl 25	-763101178	32610324	-76.51699389	3.43620111	56	3
518083	40	C27K27	Cl 27 entre Kr 28 y 27	-763059802	32545916	-76.51661167	3.42942111	40	2
518084	40	C27K25B	Cl 27 Kr 25B y 25A	-763058991	32553432	-76.51638639	3.43150889	56	3
518085	40	C28T23C	Cl 28 entre Tr 23C y Cl 23B	-763053292	32603200	-76.51480333	3.43422222	87	3
518087	40	K32C44	Kr 32 entre Cl 44 y 35E	-763025332	32527148	-76.50703667	3.42420778	88	2
518088	40	K32C35	Kr 32 entre Cl 35 y 34	-763033991	32528080	-76.50944194	3.42446667	55	2
518092	40	T29K26	Tr 29 entre Kr26 y 25	-763036440	32559581	-76.51012222	3.43321694	87	3
518093	40	T29K24E	Tr 29 entre Kr 24E y 24B	-763042770	32605922	-76.51188056	3.43497833	53	3
518102	40	C25K17E	Cl 25 entre Kr 17E y 17D	-763107588	32624460	-76.51877444	3.44012778	61	3
518103	40	C25K17A	Cl 25 Con Kr 17A	-763105973	32638543	-76.51832583	3.44403972	8	3
518111	40	D22T25	Dg 22 entre Tr 25 y 26	-763051152	32606408	-76.51420889	3.43511333	87	2
518112	40	C33CK24B	Cl 33C entre Kr 24B y 24C	-763035412	32608326	-76.50983667	3.43564611	31	2
518113	40	C33CK25	Cl 33C entre Kr 25 y 26	-763033296	32600526	-76.50924889	3.43347944	31	1
518114	40	K27C33E	Kr 27 entre Cl 33E y 33H	-763026900	32558589	-76.50747222	3.43294139	14	1
518115	40	K27C34	Kr 27 entre Cl 34 y 36	-763018922	32600574	-76.50525611	3.43349278	98	2
518116	40	K27C36A	Kr 27 entre Cl 36A y Dg 28B	-763011158	32601036	-76.50309944	3.43362111	58	2
518117	40	K27C44	Kr 27 entre Cl 44 y 49	-763004415	32557617	-76.50122639	3.43267139	26	1
518118	40	K27C52	Kr 27 entre 52 y 54	-762957802	32554270	-76.49938944	3.43174167	86	2
518119	40	K27C70	Kr 27 entre Cl 70 y 56A	-762953042	32552619	-76.49806722	3.43128306	18	1
518120	40	K27C50	Kr 27 entre Cl 50 y 49	-763002889	32557602	-76.5008025	3.43266722	26	1
518121	40	K27D28B	Kr 27 entre Dg 28B y Cl 39	-763011700	32602036	-76.50325	3.43389889	16	3
518122	40	K27C33H	Kr 27 entre Cl 33H y 34	-763021292	32600562	-76.50591444	3.43348944	18	1
518123	40	D24CT25	Dg 24C entre Tr 25 y 29	-763042958	32603443	-76.51193278	3.43428972	84	2
518129	40	C44K33	Cl 44 entre Kr 33 y 33A	-763026331	32521089	-76.50731417	3.42252472	44	1
518130	40	C70D28EK	Cl 70 entre Dg 28EBis y Kr 28EBis	-763002523	32536322	-76.50070083	3.42675611	55	1
518132	40	C44T29K2	Cl 44 entre Tr 29 y kr 28F	-763016857	32537868	-76.5046825	3.42718556	67	3
518133	40	C44K28ET	Cl 44 entre Kr 28E y Tr 28D	-763012317	32546598	-76.50342139	3.42961056	98	3
518134	40	C44K28A	Cl 44 entre Kr 28A y 28	-763008089	32555223	-76.50224694	3.43200639	1	3
518135	40	C44K26L	C44 entre Kr 26L y 26K	-763001806	32607225	-76.50050167	3.43534028	83	2
518136	40	C52K2625	Cl 52 entre Kr 26 y 25A	-762952030	32615111	-76.49778611	3.43753083	17	1
518143	40	C44T28D	Cl 44 entre Tr 28D y 33H	-763012691	32547852	-76.50352528	3.42995889	44	3
518147	40	C70K25	Cl 70 entre Kr 25 y 25A	-762936383	32622139	-76.49343972	3.43948306	32	3
518148	40	C70K26F	Cl 70 entre Kr 26D y 26F	-762943427	32609247	-76.49539639	3.43590194	52	2
518149	40	C70K34	Cl 70 entre Kr 34 y 35	-763026206	32513708	-76.50727944	3.42047444	79	3
518150	40	C70K28B	Cl 70 entre Kr 28B y 27	-762950089	32550232	-76.49724694	3.43062	18	1
518153	40	C52K22	Cl 52 entre Kr 22 y 20	-762957742	32631489	-76.49937278	3.44208028	69	3
518154	40	K23C25T2	Kr 23 entre Cl 25 y Tr 25E	-763108417	32607529	-76.51900472	3.43542472	86	2
518155	40	C52K24B	Cl 52 entre Kr 24B y 24A	-762954601	32622155	-76.49850028	3.4394875	92	3
518156	40	C44K21	Cl 44 entre Kr 21 y 19	-763007167	32628952	-76.50199083	3.44137556	77	1
518157	40	C44K20	Cl 44 entre Kr 20 y 22	-763007306	32627817	-76.50202944	3.44106028	68	2
518158	40	C44K24	Cl 44 entre K24 y 24A	-763004976	32621360	-76.50138222	3.43926667	100	1
518159	40	C44K25	Cl 44 entre Kr 25 y 25A	-763002218	32613942	-76.50061611	3.43720611	46	3
518160	40	C44C43	Cl 44 entre Cl 43 y 42A	-763002304	32607664	-76.50064	3.43546222	83	3
518161	40	C44K28	Cl 44 entre Kr 28 y 28A	-763008607	32555504	-76.50239083	3.43208444	12	2
518162	40	C44T33E	Cl 44 entre Tr 33E y 29	-763017063	32539076	-76.50473972	3.42752111	26	2
518164	40	C70K26P	Cl 70 entre Kr 26P y 27	-762951987	32552617	-76.49777417	3.4312825	48	2
518165	40	K39C26D	Kr 39 entre Cl 26D y 26C	-763106371	32510010	-76.51843639	3.41944722	30	2
518169	40	C70K28C	Cl 70 entre Kr 28C y 28B	-762952819	32544899	-76.49800528	3.42913861	82	3
519013	40	C25K4	Cl 25 entre Kr 4 y 5	-763114395	32727932	-76.52066528	3.45775889	33	3
519015	40	C10K32A	Cl 10 entre Kr 32A y 33	-763201494	32534896	-76.53374833	3.42636	36	3
519016	40	C10K33	Cl 10 entre Kr 33 y 32A	-763200006	32533606	-76.533335	3.42600167	15	3
519017	40	C10K32	Cl 10 entre Kr 30 y 32	-763157990	32541712	-76.532775	3.42825333	14	3
519018	40	C10K31	Cl 10 entre Kr 31 y 30	-763155176	32542552	-76.53199333	3.42848667	62	3
519019	40	D23T11	Dg 23 entre Tr 11 y 10	-763148894	32549194	-76.53024833	3.43033167	85	1
519020	40	D23T12	Dg 23 entre Tr 12A y 13	-763146511	32548750	-76.52958639	3.43020833	47	2
519021	40	C13D231	Cl 13 entre Kr 23D y D23	-763141452	32558889	-76.52818111	3.43302472	18	3
519022	40	C13D232	Cl 13 entre Dg 23 y K23D	-763140494	32558329	-76.527915	3.43286917	70	3
519024	40	C13K22B	Cl 13 entre Kr 23 y 22B	-763141240	32610417	-76.52812222	3.43622694	51	1
519025	40	C13K20	Cl 13 entre Kr 20 y 21	-763142477	32617537	-76.52846583	3.43820472	69	3
519026	40	C13K21	Cl 13 entre Kr 21 y 20	-763141598	32618426	-76.52822167	3.43845167	43	2
519027	40	C9K32A	Cl 9 entre Kr 32A y 32	-763212830	32539461	-76.53689722	3.42762806	56	3
519028	40	C9K31	Cl 9 entre Kr 31 y 30	-763210736	32546450	-76.53631556	3.42956944	11	1
519029	40	C9K27	Cl 9 entre Kr 28 y 27	-763207810	32556194	-76.53550278	3.43227611	80	1
519030	40	C9K23D	Cl 9 entre Kr 23D y 23C	-763204980	32605569	-76.53471667	3.43488028	80	3
517173	40	K56C8OE	Kr 56 entre Cl 7 Oe y 8 Oe	-763338255	32440629	-76.56062639	3.41128583	46	2
519032	40	K15C7	Kr 15 entre Cl 7 y 5	-763206414	32628296	-76.535115	3.44119333	37	1
519033	40	C21K1	Cl 21 entre Kr 1 y 2	-763132718	32727684	-76.525755	3.45769	27	1
519035	40	K5C24	Kr 5 entre Cl 24 y 25	-763114718	32724318	-76.520755	3.456755	32	3
519038	40	A4NC5	Av 4N entre Cl 5 y 6 Oeste	-763246137	32713694	-76.54614917	3.45380389	33	2
519039	40	A4NC6	Av 4N entre Cl 6 y 7 Oeste	-763255130	32716056	-76.54864722	3.45446	61	1
519040	40	K1C9OE	Kr 1 entre Cl 9 y 10 Oe	-763302606	32707249	-76.55072389	3.45201361	96	3
519041	40	C7OEAV1	Cl 7 Oe con Av 1	-763258513	32711812	-76.54958694	3.45328111	77	2
519042	40	C5OEK1A	Cl 5 Oeste entre Kr 1A y 1B Oeste	-763248066	32711168	-76.546685	3.45310222	93	1
519043	40	K1C5OE	Kr 1 entre Kr 1C y Cl 5 Oeste	-763241545	32702094	-76.54487361	3.45058167	32	2
519046	40	K8C21	Kr 8 entre Cl 21 y 20	-763124306	32705978	-76.52341833	3.45166056	46	3
519047	40	K8C16	Kr 8 entre Cl 16 y 15	-763140776	32700774	-76.52799333	3.450215	53	2
519048	40	K5C15	Kr 5 entre Cl 15  y 16	-763144273	32710787	-76.52896472	3.45299639	82	2
519049	40	K5C19	Kr 5 entre Cl 19 y 20	-763132520	32716356	-76.5257	3.45454333	32	3
519050	40	C9K12	Cl 9 entre Kr 13 y 12	-763159637	32641027	-76.5332325	3.44472972	54	2
519051	40	C10K10	Cl 10 entre Kr 10 y 12	-763157487	32647429	-76.53263528	3.44650806	72	2
519052	40	C10K13	Cl 10 entre Kr 13 y 14	-763155942	32637265	-76.53220611	3.44368472	61	2
519056	40	K23AC12A	Kr 23A entre Cl 12A y 13	-763142883	32606032	-76.52857861	3.43500889	100	1
519059	40	C10K19	Cl 10 entre Kr 19 y 20	-763153691	32620386	-76.53158083	3.43899611	34	3
519061	40	C15K19A	Cl 15 entre Kr 19A y 18A	-763133330	32622108	-76.525925	3.43947444	79	1
519062	40	C10K22	Cl 10 entre Kr 22 y 23	-763152581	32610776	-76.5312725	3.43632667	43	1
519064	40	C25K12	Cl 25 entre Kr 12 y 13A	-763107008	32644604	-76.51861333	3.44572333	23	3
519065	40	C25K16	Cl 25 entre Kr 16 y 17	-763109480	32636804	-76.5193	3.44355667	15	3
519066	40	C25K17F	Cl 25 entre Kr 17F y 18	-763111762	32619956	-76.51993389	3.43887667	49	2
519067	40	C9K15	Cl 9 entre Kr 15 y 14A	-763159479	32632319	-76.53318861	3.44231083	57	3
519068	40	C9K8	Cl 9 entre Kr 8 y 6	-763202402	32658166	-76.53400056	3.44949056	60	2
519070	40	K4C9	Kr 4 entre Cl 9 y 8	-763205505	32703975	-76.5348625	3.45110417	92	1
519071	40	K4C5	Kr 4 entre Cl 5 y 4	-763216906	32658565	-76.53802944	3.44960139	65	3
519073	40	K2C2OE	Kr 2 entre Cl 2 y 3 Oeste	-763232638	32703020	-76.54239944	3.45083889	75	1
519074	40	K1C11OE	Kr 1 entre Cl 11 y 12 Oe	-763312414	32702479	-76.55344833	3.45068861	84	3
519075	40	K2OEC14	Kr 20E entre Cl 14 y 15 Oe	-763324334	32652170	-76.55675944	3.447825	24	1
519076	40	K2C13OE	Kr 2 entre Cl 13 y 12 Oe	-763314142	32658436	-76.55392833	3.44956556	12	1
519077	40	K2C11OE	Kr 2 entre Cl 11 y 10 Oe	-763303388	32703564	-76.55094111	3.45099	91	1
519078	40	K2C8OE	Kr 2 entre Cl 8 y 7 Oe	-763255942	32706428	-76.54887278	3.45178556	4	1
519079	40	K1C2A	Kr 1 entre Cl 2 y 2A	-763223514	32701476	-76.539865	3.45041	33	2
519080	40	K10C7	Kr 10 entre Cl 7 y 8	-763204546	32647329	-76.53459611	3.44648028	19	2
519081	40	C5K15	Cl 5 entre Kr 15 y 16	-763212381	32633433	-76.5367725	3.44262028	1	3
519082	40	C5K19	Cl 5 entre Kr 19 y 22	-763213611	32625923	-76.53711417	3.44053417	99	1
519083	40	K23C5	Kr 23 entre Cl 5 y 3A	-763217418	32620736	-76.53817167	3.43909333	54	3
519084	40	K23C2	Kr 23 entre Cl 2 y 1A	-763226388	32626325	-76.54066333	3.44064583	13	1
519086	40	K24CC6	Kr 24C entre Cl 6 y 9	-763245173	32630832	-76.54588139	3.44189778	9	1
519087	40	K24CC61	Kr 24C entre Cl 6 y  9	-763253483	32634298	-76.54818972	3.44286056	82	1
519088	40	K14C9	Kr 14 entre Cl 9 y 8	-763252698	32639588	-76.54797167	3.44433	79	1
519089	40	K14C6	Kr 14 entre Cl 6 y 7	-763243392	32639180	-76.54538667	3.44421667	40	1
519090	40	K14C3	Kr 14 entre Cl 3 y 2	-763232967	32636369	-76.54249083	3.44343583	71	2
519092	40	K14C31	Kr 14 entre Cl 3 y 4	-763218973	32637467	-76.53860361	3.44374083	24	2
519093	40	C4BK27	Cl 4B entre Kr 27 y 34	-763231888	32602156	-76.54219111	3.43393222	17	3
519094	40	K34C4	Kr 34 entre Cl 4 y 3	-763240656	32604578	-76.54462667	3.434605	61	1
519095	40	C3OK34	Cl 3 Oe entre Kr 34 y 27	-763243427	32612031	-76.54539639	3.43667528	42	2
519096	40	K27C5O	Kr 27 con Cl 5 Oe	-763248460	32622779	-76.54679444	3.43966083	56	3
519097	40	K27C9O2	Kr 27 con Cl 9 Oe	-763254523	32636166	-76.54847861	3.44337944	23	2
519098	40	K6C8O	Kr 6 con Cl 8 Oe	-763250059	32643181	-76.54723861	3.44532806	28	2
519100	40	K4C8O2	Kr 4 entre Cl 8 y 9 Oe	-763255140	32648738	-76.54865	3.44687167	11	2
519101	40	K4C11O	Kr 4 entre Cl 11 y 12 Oe	-763302035	32646235	-76.55056528	3.44617639	59	2
519103	40	K4C12O	Kr 4 entre Cl 12 y 11 Oe	-763301700	32646198	-76.55047222	3.44616611	80	1
519104	40	K4C9O	Kr 4 entre Cl 9 y 8 Oe	-763255308	32648531	-76.54869667	3.44681417	70	3
519105	40	K4C7O	Kr 4 entre Cl 7 y 6 Oe	-763250422	32648633	-76.54733944	3.4468425	61	1
519106	40	K6C8O1	Kr 6 con Cl 8 Oe	-763252614	32643514	-76.54794833	3.44542056	39	3
519107	40	K27C9O1	Kr 27 con Cl 9 Oe	-763254596	32635023	-76.54849889	3.44306194	53	2
519108	40	C5OK24E	Cl 5 Oe entre Kr 24E y 24F	-763250757	32624930	-76.5474325	3.44025833	84	2
519109	40	K27C3O	Kr 27 entre Cl 3 y 2 Oe	-763241973	32611959	-76.5449925	3.43665528	42	1
519110	40	K27C3	Kr 27 entre Cl 3 y 4	-763237192	32607582	-76.54366444	3.43543944	69	2
519111	40	C1K13A	Cl 1 entre Kr 13A y 13	-763228605	32639141	-76.54127917	3.44420583	87	2
519112	40	A1K2	Av 1 entre Kr 2 y Cl 2 OE	-763232469	32703854	-76.5423525	3.45107056	45	3
519113	40	K24CC4OE	Kr 24C entre Cl 4 OE y 5 OE	-763238847	32627517	-76.54412417	3.44097694	70	3
519114	40	C11OK24C	Cl 11 Oe con Kr 24C	-763255627	32634087	-76.54878528	3.44280194	53	3
519115	40	C11OEK24	Cl 11 Oe con Kr 24D	-763255730	32631851	-76.54881389	3.44218083	59	3
519122	40	AV2OE	Av 2 Oeste	-763331789	32649454	-76.55883028	3.44707056	61	3
519123	40	AV2OEC20	Av 2 Oeste con Cl 20	-763341529	32651537	-76.56153583	3.44764917	3	3
519124	40	AV2OEATE	Av 2 Oeste Sector Atenas	-763349454	32652554	-76.56373722	3.44793167	25	1
519125	40	AV2OC201	Av 2 Oeste con Cl 20	-763342357	32651417	-76.56176583	3.44761583	68	1
519126	40	AV2OEBEL	Av 2 Oeste a Bellavista	-763333050	32649333	-76.55918056	3.44703694	79	2
519128	40	K4C12AO	Kr 4 entre Cl 12A y 13 Oeste	-763310079	32642796	-76.55279972	3.44522111	60	3
519129	40	C13OK15	Cl 13 Oeste con Kr 15	-763313915	32636963	-76.55386528	3.44360083	36	1
519130	40	C14OK23C	Cl 14 oeste entre Kr 23C y 24D	-763307433	32629612	-76.55206472	3.44155889	11	2
519131	40	C14OK24C	Cl 14 Oeste entre Kr 24C y 24B	-763308366	32631083	-76.55232389	3.4419675	37	2
519132	40	C14OK15	Cl 14 Oeste entre Kr 15 y 16	-763314203	32636042	-76.55394528	3.443345	47	3
519133	40	K4C13O	Kr 4 entre Cl 13 y 12A Oeste	-763309819	32642674	-76.5527275	3.44518722	76	2
519135	40	C5K6Y9	Cl 5 entre Kr 6 y 9 Clinica Comfenalco	-763213087	32650709	-76.53696861	3.44741917	61	3
519137	40	C7K25	Cl 7 entre Kr 25 y 24 Bomberos	-763214421	32609210	-76.53733917	3.43589167	85	3
519138	40	C5K13Y14	Cl 5 entre Kr 13 y 14 Puente Peatonal	-763211645	32639460	-76.53656806	3.44429444	25	3
519139	40	K10C15	Kr 10 entre Cl 15 y 16	-763137281	32652679	-76.5270225	3.44796639	58	1
519140	40	K10C19	Kr 10 entre Cl 19 y 20	-763125350	32655860	-76.52370833	3.44885	21	3
519141	40	K10C22A	Kr 10 entre Cl 22A y 23	-763114201	32658625	-76.52061139	3.44961806	53	1
518050	40	C70K26J	Cl 70 entre Kr 26J y 26K	-762947106	32602161	-76.49641833	3.43393361	25	3
519144	40	C14OK24B	Cl 14 Oe entre Kr 24C y 24B	-763310214	32631445	-76.55283722	3.44206806	83	1
519145	40	K32C8	Kr 32 entre Cl 8 y 7	-763216815	32541617	-76.53800417	3.42822694	55	2
519146	40	C7K30	Cl 7 entre Kr 30 y 29	-763215219	32552662	-76.53756083	3.431295	41	3
519147	40	C7K23B	Cl 7 entre  Kr 23B y 23	-763212185	32614014	-76.53671806	3.43722611	43	1
519148	40	K23C13A	Kr 23 entre Cl 13A y 14	-763137784	32609061	-76.52716222	3.43585028	54	1
519149	40	C8K19	Cl 8 entre Kr 19 y 22	-763205742	32619959	-76.53492833	3.4388775	30	3
519150	40	K23AC8	Kr 23A entre Cl 8 y 8A	-763206613	32610797	-76.53517028	3.4363325	81	1
519153	40	C15K23	Cl 15 entre Kr 23 y 23A	-763134406	32607446	-76.52622389	3.43540167	40	1
519154	40	C10K23C	Cl 10 entre Kr 23C y 24	-763154054	32602096	-76.53168167	3.43391556	45	3
519155	40	C10K28	Cl 10 entre Kr 28 y 29	-763156808	32552546	-76.53244667	3.43126278	69	1
519156	40	C10K30	Cl 10 entre Kr 30 y 31	-763159361	32542838	-76.53315583	3.42856611	14	2
519157	40	C9K29	Cl 9 entre Kr 29 y 28	-763208512	32553462	-76.53569778	3.43151722	85	2
519158	40	C25K7	Cl 25 entre Kr 7 y 7A	-763110231	32713971	-76.51950861	3.45388083	8	2
519160	40	K14C2Y2A	Kr 14 entre Cl 2 y 2A	-763225241	32636291	-76.54034472	3.44341417	74	2
519161	40	A4NC3	Av 4N entre Cl 3 y 4 OE	-763238569	32705168	-76.54404694	3.45143556	34	3
519162	40	K1C7OE	Kr 1 entre Cl 7 y 5 Oe	-763252872	32712900	-76.54802	3.45358333	68	2
519163	40	C8AV3	Cl 8 entre Av 3 y 4	-763211863	32715859	-76.53662861	3.45440528	1	2
519164	40	A4NC18	Av 4N entre Cl 18 y 19	-763146063	32733938	-76.52946194	3.45942722	45	3
519165	40	A4NC21	Av 4N entre Cl 21 y 22	-763140012	32742151	-76.52778111	3.46170861	59	2
519166	40	A4NC23	Av 4N entre Cl 23 y 24	-763134994	32750258	-76.52638722	3.46396056	22	1
519167	40	C7K27	Cl 7 entre Kr 27 y 26	-763214986	32601762	-76.53749611	3.43382278	92	2
519168	40	C25K8	Cl 25 entre Kr 8 y 9	-763108530	32707766	-76.51903611	3.45215722	24	2
519169	40	C25K11	Cl 25 entre Kr 11 y 11B	-763106266	32656996	-76.51840722	3.44916556	16	3
519170	40	C23K13	Cl 23 entre Kr 13 y 12	-763110008	32645608	-76.51944667	3.44600222	23	3
519171	40	C23K11	Cl 23 entre Kr 11 y 10	-763112503	32657468	-76.52013972	3.44929667	69	2
519172	40	C23K9	Cl 23 entre Kr 9 y 8A	-763113956	32703813	-76.52054333	3.45105917	97	2
519173	40	K8C23	Kr 8 entre C23 y 22A	-763116817	32708190	-76.52133806	3.452275	41	3
519174	40	C21K7A	Cl 21 entre Kr 7A y 7	-763124931	32710078	-76.52359194	3.45279944	24	2
519175	40	C21K5	Cl 21 entre Kr 5 y 4	-763128964	32719295	-76.52471222	3.45535972	16	2
519177	40	C8K23A	Cl 8 entre Kr 23A y 23C	-763208681	32610132	-76.53574472	3.43614778	62	1
519178	40	C8K27	Cl 8 entre Kr 27 y 28	-763211432	32557555	-76.53650889	3.43265417	78	3
519179	40	C8K30	Cl 8 entre Kr 30 y 30A	-763214043	32547404	-76.53723417	3.42983444	2	3
519180	40	C8K32	Cl 8 entre Kr 32 y 32A	-763216210	32540314	-76.53783611	3.427865	67	1
519181	40	A4OEC5	Av 4 Oeste con  Cl 5	-763253493	32719169	-76.5481925	3.45532472	73	1
519182	40	A15OEC7	Av 15 Oeste con Cl 7	-763258496	32728784	-76.54958222	3.45799556	72	1
519183	40	A15OEC9A	Av 15 Oeste Cl 9A	-763303669	32734219	-76.55101917	3.45950528	68	3
519184	40	A15OC9A2	Av 15 Oeste Cl 9A 2	-763311597	32736664	-76.55322139	3.46018444	4	2
519185	40	PRAUSA1	Puente del Rio Aguacatal Urbanizacion Se	-763320234	32734774	-76.55562056	3.45965944	26	3
519186	40	C11OEK15	Cl 11 Oeste con Kr 15A	-763332705	32742902	-76.55908472	3.46191722	41	3
519187	40	C14OEK12	Cl 14 Oeste con Kr 12A	-763335933	32740748	-76.55998139	3.46131889	85	3
519188	40	A9OE	Av 9 Oeste	-763341040	32734595	-76.5614	3.45960972	24	3
519189	40	A9OE2	Av 9 Oeste 2	-763347414	32727279	-76.56317056	3.4575775	34	1
519190	40	A9AOE22A	Av 22 Oeste entre  Cl 22A y 23 Bis	-763352605	32720790	-76.5646125	3.455775	78	1
519191	40	A9AOE24	Av 9A Oeste con Cl 24	-763354746	32721357	-76.56520722	3.4559325	21	3
519192	40	A9AOE241	Av 9A Oeste con Cl 24 - 1	-763355917	32721114	-76.5655325	3.455865	16	2
519193	40	A9AOE23B	Av 9A Oeste entre Cl 23 Bis y 22A	-763351804	32720222	-76.56439	3.45561722	25	3
519194	40	A9OE1	Av 9 Oeste - 1	-763346076	32728022	-76.56279889	3.45778389	1	1
519195	40	A9OE3	Av 9 Oeste - 3	-763339136	32736414	-76.56087111	3.460115	9	1
519196	40	C14OK121	Cl 14 Oeste con Kr 12A Oeste	-763335904	32738781	-76.55997333	3.4607725	7	1
519197	40	C11OK15A	Cl 11 Oeste con Kr 15A	-763332611	32741604	-76.55905861	3.46155667	38	1
519199	40	A15OC9A1	Av 15 Oeste con Cl 9A - 1	-763311663	32736192	-76.55323972	3.46005333	59	1
519200	40	A15OC9A3	Av 15 Oeste con Cl 9A	-763304887	32734718	-76.5513575	3.45964389	40	1
519201	40	A15OEC71	Av 15 Oeste con Cl 7 - 1	-763258869	32728248	-76.54968583	3.45784667	57	3
519202	40	A40OEC51	Av 4 Oeste con Cl 5 - 1	-763253295	32718529	-76.5481375	3.45514694	52	1
519206	40	C10OK25D	Cl 10 Oe con Kr 25D	-763258886	32604541	-76.54969056	3.43459472	39	3
600100	40	TMENGA1	Terminal Menga C1	-763033049	32921113	-76.50918028	3.48919806	20	3
600101	40	TMENGA2	Terminal Menga C2	-763032175	32920771	-76.5089375	3.48910306	50	2
600102	40	TMENGA3	Terminal Menga C3	-763030655	32920278	-76.50851528	3.48896611	43	2
600103	40	TMENGA4	Terminal Menga C4	-763029382	32919898	-76.50816167	3.48886056	26	2
600104	40	TMENGA5	Terminal Menga B1	-763028644	32921158	-76.50795667	3.48921056	73	1
600106	40	TMENGA7	Terminal Menga B3	-763030999	32921823	-76.50861083	3.48939528	87	2
600108	40	TMENGA9	Terminal Menga A1	-763027857	32921895	-76.50773806	3.48941528	73	1
600109	40	TMENGA10	Terminal Menga A2	-763028484	32922122	-76.50791222	3.48947833	32	3
600110	40	TMENGA11	Terminal Menga A3	-763029187	32922331	-76.5081075	3.48953639	10	3
600111	40	TMENGA12	Terminal Menga A4	-763029791	32922448	-76.50827528	3.48956889	90	2
600158	40	A.SANI10	Terminal Andres Sanin E3	-762857556	32636156	-76.48265444	3.44337667	96	3
600159	40	A.SANI11	Terminal Andres Sanin E2	-762859112	32636136	-76.48308667	3.44337111	85	1
600163	40	A.SANI15	Terminal Andres Sanin E1	-762900661	32636031	-76.48351694	3.44334194	32	2
600200	40	CHIMI3	Chiminangos A2	-762954162	32852998	-76.49837833	3.48138833	66	2
600201	40	CHIMI2	Chiminangos B1	-762953076	32853766	-76.49807667	3.48160167	70	2
601851	40	UDP2	Unidad Deportiva B1	-763253658	32452512	-76.54823833	3.41458667	67	1
601853	40	UDP4	Unidad Deportiva B2	-763253616	32453976	-76.54822667	3.41499333	99	3
601854	40	UDP5	Unidad Deportiva A3	-763254420	32452116	-76.54845	3.41447667	65	1
601855	40	UDP6	Unidad Deportiva B3	-763253615	32455479	-76.54822639	3.41541083	55	1
602100	40	CAPRI1	Capri A1	-763242276	32317526	-76.54507667	3.38820167	1	2
602103	40	CAPRI4	Capri B2	-763241502	32317808	-76.54486167	3.38828	85	1
602300	40	UNIV1	Universidades A1	-763145306	32201218	-76.52925167	3.367005	52	2
602303	40	UNIV4	Universidades B2	-763145822	32201860	-76.529395	3.36718333	94	1
519031	40	C9K19	Cl 9 entre Kr 19 y 17	-763200516	32620238	-76.53347667	3.438955	8	1
4	40	PTP_SAL	Patio Taller Pizamos_Salida	-762834421	32413805	-76.47622806	3.40383472	80	2
5	40	PPM_SAL	Puerto Mallarino	-762829572	32549701	-76.47488111	3.4304725	54	2
6	40	PPM_ENT	Puerto Mallarino	-762829572	32549701	-76.47488111	3.4304725	51	1
9	40	PVL-SAL	Patio Valle Lili	-763045388	32132031	-76.51260778	3.3588975	49	2
10	40	PVL-ENT	Patio Valle Lili	-763044995	32132098	-76.51249861	3.35891611	81	3
21	40	PCS-SAL	Patio Calima-Sameco Salida	-763016889	32949173	-76.50469139	3.4969925	33	1
22	40	PCS-ENT	Patio Calima-Sameco Entrada	-763016889	32949173	-76.50469139	3.4969925	32	3
41	40	PTP_ENT	Patio Taller Pizamos_Entrada	-762834494	32413658	-76.47624833	3.40379389	15	3
500050	40	T.C-A1	T.Canaveralejo A1	-763258637	32453166	-76.54962139	3.41476833	68	2
500051	40	T.C-A2	T.Canaveralejo A2	-763258462	32452354	-76.54957278	3.41454278	9	2
500052	40	T.C-A3	T.Canaveralejo A3	-763257714	32451892	-76.549365	3.41441444	81	1
500054	40	T.C-A5	T.Canaveralejo A5	-763256733	32452790	-76.5490925	3.41466389	52	1
500055	40	T.C-A7	T.Canaveralejo A7	-763256229	32454169	-76.5489525	3.41504694	76	2
500056	40	T.C-A6	T.Canaveralejo A6	-763256424	32453498	-76.54900667	3.41486056	18	2
500057	40	T.C-B3	T.Canaveralejo B3	-763256820	32454019	-76.54911667	3.41500528	15	1
500058	40	T.C-A8	T.Canaveralejo A8	-763256088	32454643	-76.54891333	3.41517861	76	3
500059	40	T.C-B2	T.Canaveralejo B2	-763256979	32453200	-76.54916083	3.41477778	47	1
500060	40	T.C-A9	T.Canaveralejo A9	-763256278	32455170	-76.54896611	3.415325	87	2
500061	40	T.C-A10	T.Canaveralejo A10	-763256699	32455320	-76.54908306	3.41536667	53	2
500062	40	T.C-A11	T.Canaveralejo A11	-763257231	32455420	-76.54923083	3.41539444	30	3
500063	40	T.C-A12	T.Canaveralejo A12	-763257744	32455115	-76.54937333	3.41530972	32	3
500100	40	TMENGA1	Terminal Menga C1	-763033049	32921113	-76.50918028	3.48919806	23	1
500101	40	TMENGA2	Terminal Menga C2	-763032175	32920771	-76.5089375	3.48910306	15	3
500102	40	TMENGA3	Terminal Menga C3	-763030655	32920278	-76.50851528	3.48896611	1	3
500103	40	TMENGA4	Terminal Menga C4	-763029382	32919898	-76.50816167	3.48886056	76	3
500104	40	TMENGA5	Terminal Menga B1	-763028644	32921158	-76.50795667	3.48921056	73	1
500106	40	TMENGA7	Terminal Menga B3	-763030999	32921823	-76.50861083	3.48939528	6	2
500108	40	TMENGA9	Terminal Menga A1	-763027857	32921895	-76.50773806	3.48941528	39	3
500109	40	TMENGA10	Terminal Menga A2	-763028484	32922122	-76.50791222	3.48947833	95	3
500110	40	TMENGA11	Terminal Menga A3	-763029187	32922331	-76.5081075	3.48953639	99	1
500111	40	TMENGA12	Terminal Menga A4	-763029791	32922448	-76.50827528	3.48956889	4	1
500113	40	TMENGA14	Terminal Menga A6	-763031010	32922748	-76.50861389	3.48965222	52	2
500114	40	TMENGA15	Terminal Menga A7	-763031618	32922899	-76.50878278	3.48969417	100	2
500150	40	A.SANIN1	Terminal Andres Sanin B1	-762857155	32637688	-76.48254306	3.44380222	34	3
500151	40	A.SANIN2	Terminal Andres Sanin B2	-762859172	32637954	-76.48310333	3.44387611	18	3
500152	40	A.SANIN3	Terminal Andres Sanin B3	-762900914	32638173	-76.48358722	3.44393694	4	3
500153	40	A.SANIN4	Terminal Andres Sanin C1	-762857133	32637265	-76.48253694	3.44368472	72	3
500154	40	A.SANIN5	Terminal Andres Sanin C3	-762859017	32637523	-76.48306028	3.44375639	49	1
500155	40	A.SANIN6	Terminal Andres Sanin C4	-762900261	32637700	-76.48340583	3.44380556	35	3
500156	40	A.SANIN7	Terminal Andres Sanin D3	-762859152	32636584	-76.48309778	3.44349556	28	1
500157	40	A.SANIN8	Terminal Andres Sanin D2	-762900359	32636560	-76.48343306	3.44348889	31	1
500158	40	A.SANI10	Terminal Andres Sanin E3	-762857556	32636156	-76.48265444	3.44337667	55	2
500159	40	A.SANI11	Terminal Andres Sanin E2	-762859112	32636136	-76.48308667	3.44337111	94	3
500160	40	A.SANI12	Terminal Andres Sanin C2	-762857831	32637364	-76.48273083	3.44371222	84	1
500161	40	A.SANI13	Terminal Andres Sanin C5	-762900883	32637775	-76.48357861	3.44382639	92	3
500162	40	A.SANI14	Terminal Andres Sanin D1	-762900957	32636559	-76.48359917	3.44348861	65	2
500163	40	A.SANI15	Terminal Andres Sanin E1	-762900661	32636031	-76.48351694	3.44334194	55	3
500164	40	A.SANI16	Terminal Andres Sanin D4	-762857928	32636615	-76.48275778	3.44350417	60	2
500165	40	A.SANI17	Terminal Andres Sanin D5	-762857213	32636636	-76.48255917	3.44351	41	1
500200	40	CHIMI3	Chiminangos A2	-762954162	32852998	-76.49837833	3.48138833	20	3
500201	40	CHIMI2	Chiminangos B1	-762953076	32853766	-76.49807667	3.48160167	71	2
500250	40	FLORAI1	Flora Industrial A1	-763008742	32841370	-76.50242833	3.47815833	5	3
500251	40	FLORAI2	Flora Industrial B1	-763007542	32842078	-76.502095	3.478355	88	3
500300	40	SALOM1	Salomia A1	-763025020	32825050	-76.50695	3.473625	71	2
500301	40	SALOM2	Salomia B1	-763023598	32825866	-76.506555	3.47385167	40	3
500352	40	POPU3	Popular A2	-763040260	32808484	-76.51118333	3.46902333	62	3
500353	40	POPU4	Popular B2	-763038034	32810842	-76.510565	3.46967833	97	3
500400	40	MZAN1	Manzanares A1	-763048366	32758050	-76.513435	3.466125	4	3
500401	40	MZAN2	Manzanares B1	-763047592	32758752	-76.51322	3.46632	12	2
500450	40	FATI1	Fatima A1	-763103072	32746404	-76.51752	3.46289	49	2
500451	40	FATI2	Fatima B1	-763102010	32746716	-76.517225	3.46297667	49	3
500500	40	RIOC1	Rio Cali A1	-763131236	32737548	-76.52534333	3.46043	98	3
500600	40	TORRE1	Torre de Cali A1	-763149044	32724858	-76.53029	3.456905	63	2
500601	40	TORRE2	Torre de Cali B1	-763149170	32724294	-76.530325	3.45674833	9	3
500602	40	TORRE3	Torre de Cali A2	-763149932	32723574	-76.53053667	3.45654833	20	2
500603	40	TORRE4	Torre de Cali B2	-763148174	32725632	-76.53004833	3.45712	71	1
500650	40	PILOT2	Piloto B1	-763120364	32736510	-76.52232333	3.46014167	37	1
500700	40	SANIC2	San Nicolas B1	-763132076	32730936	-76.52557667	3.45859333	11	2
500750	40	ERMI1	La Ermita A1	-763154278	32713065	-76.53174389	3.45362917	63	1
500751	40	ERMI3	La Ermita A2	-763153532	32711454	-76.53153667	3.45318167	76	2
500800	40	CAICED1	Plaza de Caicedo A1	-763152836	32708670	-76.53134333	3.45240833	24	1
500850	40	CENTRO1	Centro A1	-763148516	32654744	-76.53014333	3.44854	92	3
500851	40	CENTRO3	Centro A2	-763148102	32653142	-76.53002833	3.448095	95	2
500900	40	STROSA1	Santa Rosa A1	-763147130	32650040	-76.52975833	3.44723333	50	1
500950	40	FRAY1	Fray Damian A1	-763144118	32638286	-76.52892167	3.44396833	2	2
500952	40	FRAY5	Fray Damian A3	-763143428	32635256	-76.52873	3.44312667	91	1
501000	40	SANBO1	San Bosco A1	-763156838	32632424	-76.532455	3.44234	100	2
501001	40	SANBO2	San Bosco B1	-763157234	32632082	-76.532565	3.442245	15	2
501002	40	SANBO3	San Bosco A2	-763158296	32631950	-76.53286	3.44220833	93	3
501003	40	SANBO4	San Bosco B2	-763155590	32632472	-76.53210833	3.44235333	3	1
501050	40	7-ago-01	7 de Agosto A1	-762913440	32643122	-76.48706667	3.44531167	10	3
501051	40	7-ago-02	7 de Agosto B1	-762913761	32642750	-76.48715583	3.44520833	20	1
501052	40	7-ago-03	7 de Agosto A2	-762914994	32642630	-76.48749833	3.445175	48	2
501053	40	7-ago-04	7 de Agosto B2	-762912210	32643290	-76.486725	3.44535833	46	2
501100	40	TREB1	Trebol A1	-762946062	32636948	-76.49612833	3.44359667	52	1
501101	40	TREB2	Trebol B1	-762945060	32636558	-76.49585	3.44348833	68	1
501150	40	VICOL1	Villa Colombia A1	-762956376	32638172	-76.49899333	3.44393667	80	3
501151	40	VICOL2	Villa Colombia B1	-762955206	32637560	-76.49866833	3.44376667	54	3
501200	40	CHAPI1	Chapinero A1	-763008520	32639714	-76.50236667	3.444365	17	3
501201	40	CHAPI2	Chapinero B1	-763007482	32639336	-76.50207833	3.44426	73	3
501250	40	ATGI1	Atanasio Girardot A1	-763030210	32641556	-76.50839167	3.44487667	9	3
501251	40	ATGI2	Atanasio Girardot B1	-763029286	32641214	-76.508135	3.44478167	14	3
513198	40	K1DC59	Kr 1D entre Cl 59 y 59B	-762948503	32824174	-76.49680639	3.47338167	37	1
513200	40	C62K1D	Cl 62 entre Kr 1D y 1D Bis	-762935867	32826090	-76.49329639	3.47391389	72	3
513201	40	C62K1G	Cl 62 entre Kr 1G y 1G1	-762934413	32821290	-76.4928925	3.47258056	29	3
513202	40	C62K2B1	Cl 62 entre Kr 2 y 2B1	-762931253	32810490	-76.49201472	3.46958056	63	2
513204	40	K1C38	Kr 1 entre Cl 38 y 35	-763051265	32755102	-76.51424028	3.46530611	15	1
513205	40	C34K2AN	Cl 34 entre Kr 2AN y 5N	-763059328	32759203	-76.51648	3.46644528	12	3
513206	40	K5C38A	Kr 5 entre Cl 38A y 39	-763056203	32806982	-76.51561194	3.46860611	25	1
513207	40	K5C42A	Kr 5 entre Cl 42 y 42A	-763046910	32815186	-76.51303056	3.470885	99	1
513210	40	K5C51A	Kr 5 entre Cl 51A y 51B	-763024493	32839149	-76.50680361	3.47754139	48	3
513211	40	K5NC63	Kr 5N entre Cl 63N y 65N	-763005529	32903533	-76.50153583	3.48431472	16	3
513215	40	K2C70	Kr 2 entre Cl 70 y 69	-762915134	32821213	-76.48753722	3.47255917	57	1
513216	40	C44K6N	Cl 44 entre Kr 6N y 5N	-763044142	32821108	-76.51226167	3.47253	84	1
513218	40	C44K1D	Cl 44 entre Kr 1D1 y 1D	-763033484	32808459	-76.50930111	3.46901639	38	3
513219	40	C44K1D1	Cl 44 entre Kr 1D1 y 1H	-763033276	32805366	-76.50924333	3.46815722	28	1
513220	40	C44K2	Cl 44 entre Kr 2 y 2B	-763030403	32754135	-76.50844528	3.4650375	78	1
513222	40	C44K6A	Cl 44 entre Kr 7 y 6A	-763024672	32733899	-76.50685333	3.45941639	58	1
513224	40	C44K1E	Cl 44 entre Kr 2 y 1E	-763030617	32757925	-76.50850472	3.46609028	33	2
513231	40	C70K1B	Cl 70 entre Kr 1B y 1B1	-762920946	32844831	-76.48915167	3.47911972	60	3
513232	40	C44K4B1	Cl 44 entre Kr 4B y 4	-763027051	32743926	-76.50751417	3.46220167	12	3
513233	40	C44K6B1	Cl 44 entre Kr 6B y 6C	-763025236	32733248	-76.50701	3.45923556	39	3
513234	40	C44K4A1	Cl 44 entre Kr 4 y 4A	-763027803	32744082	-76.50772306	3.462245	68	2
513235	40	C44K2N	Cl 44 entre Kr 2N y 3AN	-763038386	32815473	-76.51066278	3.47096472	18	2
513236	40	C44K7N	Cl 44 entre Kr 6N y 7N	-763044918	32823033	-76.51247722	3.47306472	46	1
513237	40	C73AK1A	Cl 73A entre Kr 1A y 1A1	-762909871	32928372	-76.48607528	3.49121444	77	1
513238	40	C76K1A4A	Cl 76 entre Kr 1A4A Y 1A4A BIS	-762906465	32919687	-76.48512917	3.48880194	2	2
513239	40	C76K1A5A	Cl 76 entre Kr 1A5A BIS y 1A5B	-762904243	32911797	-76.48451194	3.48661028	95	2
513240	40	C76K1A7	Cl 76 entre Kr 1A7 y 1A7 BIS	-762901273	32904037	-76.48368694	3.48445472	10	2
513241	40	K1A12C76	Kr 1A12 entre Cl 76 y 73A	-762901086	32857751	-76.483635	3.48270861	38	1
513243	40	C73AK1A5	Cl 73A entre Kr 1A5D y 1A5C BIS	-762906324	32910053	-76.48509	3.48612583	60	1
513244	40	C73AK1A4	Cl 73A entre Kr 1A4B1 y 1A4B	-762908208	32917766	-76.48561333	3.48826833	25	2
513245	40	C73AK1A1	Cl 73A entre Kr 1A1 y 1A	-762909509	32928443	-76.48597472	3.49123417	68	1
513247	40	C52A2AN8	Cl 52 entre Av 2AN y Kr 8	-763029271	32848023	-76.50813083	3.48000639	2	2
513248	40	C52K5N	Cl 52 entre Kr 5N y 4N	-763021361	32840283	-76.50593361	3.47785639	81	1
513251	40	C70K4CN	Cl 70 entre Kr 4CN y 5N	-763000942	32916230	-76.50026167	3.48784167	36	1
513252	40	C70K6N	Cl 70 entre Kr 6N y 5N	-763004119	32913893	-76.50114417	3.4871925	14	1
513253	40	C70A2N1	Cl 70 entre Av 2N y 2Bis	-763024348	32923472	-76.50676333	3.48985333	76	2
513254	40	C70A2BS1	Cl 70 entre Av 2Bis y 2N	-763022776	32921420	-76.50632667	3.48928333	65	2
513255	40	C70A2BIS	Cl 70 entre Av 2Bis y 3N	-763031362	32924774	-76.50871167	3.490215	6	2
513257	40	C70A3BN2	Cl 70 entre Av 3N y 3BN	-763042675	32928355	-76.51185417	3.49120972	28	3
513258	40	C70A3BN1	Cl 70 entre Av 3BN y 3N	-763041724	32926652	-76.51159	3.49073667	31	2
513259	40	C70A3DN	Cl 70 entre Av 3CN y 4N	-763100422	32934235	-76.51678389	3.49284306	41	3
513260	40	C70A4N2	Cl 70 entre Av 4N y 3CN	-763100264	32932922	-76.51674	3.49247833	21	3
513261	40	C70A4N1	Cl 70 entre Av 4N y 6N	-763108659	32936702	-76.51907194	3.49352833	66	1
513262	40	C70A6N-2	Cl 70 entre Av 6N y 4N 2	-763110044	32935850	-76.51945667	3.49329167	96	3
513263	40	A6NA70N	Av 6N entre Cl 67 y Av 70N	-763125140	32933067	-76.52365	3.49251861	23	2
513264	40	A6NC652	Av 6N entre Cl 52 y 67	-763124390	32933516	-76.52344167	3.49264333	9	3
513265	40	A6NC501	Av 6N entre Cl 49 y 48	-763132910	32915126	-76.52580833	3.487535	37	1
513266	40	A6NC502	Av 6N entre Cl 49 y 50N	-763132074	32914856	-76.52557611	3.48746	51	2
513267	40	A6NC471	Av 6N entre Cl 47 y 44B	-763133410	32901370	-76.52594722	3.48371389	90	1
513268	40	A6NC472	Av 6N entre Cl 45 y 47N	-763132124	32902394	-76.52559	3.48399833	13	3
513269	40	A6NC411	Av 6N entre Cl 41 y 40	-763132965	32844955	-76.52582361	3.47915417	75	3
513270	40	A6NC40-2	Av 6N entre Cl 40 Y 42	-763130431	32847731	-76.52511972	3.47992528	59	1
513271	40	A6ANC29	Av 6AN entre Cl 35 y 29	-763144593	32817229	-76.52905361	3.4714525	100	1
513273	40	A6ANC22	Av 6AN entre Cl 22A y 22	-763152149	32751286	-76.5311525	3.46424611	86	3
513279	40	A6NC23	Av 6N entre Cl 23 y 24N	-763148558	32756028	-76.530155	3.46556333	36	3
513280	40	A6NC252	Av 6N entre Cl 25 y 26N	-763146146	32804062	-76.529485	3.467795	74	1
513281	40	A6NC292	Av 6N entre Cl 29 y 30N	-763139420	32813596	-76.52761667	3.47044333	72	3
513282	40	K1FNC73	Kr 1FN con Cl 77 y 73	-762922407	32936924	-76.4895575	3.49359	78	2
513288	40	K5NC63N	Kr 5N entre Cl 63N y 65N	-763005474	32904280	-76.50152056	3.48452222	19	3
513289	40	C52K4N	Cl 52 entre Kr 4N y 5N	-763019685	32839853	-76.50546806	3.47773694	9	2
513290	40	C70K4C	Cl 70 entre Kr 3 y 4C	-762910608	32811248	-76.48628	3.46979111	11	3
513291	40	K5C44B	Kr 5 entre Cl 44 y 44B	-763024462	32739044	-76.506795	3.46084556	14	3
513292	40	K5C45C	Kr 5 entre Cl 45C y 45	-763018464	32741229	-76.50512889	3.4614525	36	3
513293	40	K2ANC81	Kr 2AN entre Cl 73 y 81	-762918155	32942814	-76.48837639	3.49522611	94	1
513294	40	C84K2AN	Cl 84 entre Kr 2NBis y 2AN	-762916311	32948280	-76.48786417	3.49674444	4	1
513295	40	K3NC83B	Kr 3N entre Cl 83B y 83A	-762922658	32949372	-76.48962722	3.49704778	14	3
513296	40	K3NC76	Kr 3N entre Cl 76 y 75	-762926851	32941306	-76.49079194	3.49480722	77	2
513297	40	K3NC72F	Kr 3N entre Cl 72F y 72E	-762931940	32931193	-76.49220556	3.49199806	89	2
513298	40	K3NC72A	Kr 3N entre Cl 72A y 72	-762937158	32923484	-76.493655	3.48985667	32	3
513299	40	C71IK3B	Cl 71I entre Kr 3B y 3EN	-762944872	32922791	-76.49579778	3.48966417	35	2
513300	40	C70K3D	Cl 70 entre Kr 3D y 3C	-762907171	32810065	-76.48532528	3.4694625	64	3
514001	40	C16K1001	Cl 16 entre Kr 100 y 98	-763145975	32212400	-76.5294375	3.37011111	70	3
514002	40	C70K11C	Cl 70 entre Kr 11C y 11B	-762919137	32650533	-76.48864917	3.44737028	36	1
514003	40	C70K11E	Cl 70 entre Kr 11A y 11E	-762924234	32648492	-76.490065	3.44680333	43	3
514009	40	C70K7LB	Cl 70 entre Kr 7LBis y 7L	-762859989	32727088	-76.48333028	3.45752444	11	2
514010	40	C70K7L	Cl 70 entre Kr 7L y 7LBis	-762903018	32727600	-76.48417167	3.45766667	22	2
514012	40	C70K7EB	Cl 70 entre Kr 7EBis y 7J	-762900456	32738190	-76.48346	3.46060833	25	1
514013	40	C70K7C	Cl 70 entre Kr 7C y 7BBis	-762900336	32749512	-76.48342667	3.46375333	51	3
514014	40	C70K7BB	Cl 70 entre Kr 7BBis y 7C	-762903102	32748240	-76.484195	3.4634	38	1
514017	40	K15C73	Kr 15 entre Cl 73 y 74	-762858629	32646601	-76.4829525	3.44627806	40	2
514019	40	C44K12	Cl 44 entre Kr 12 y 11D	-763014862	32656759	-76.50412833	3.44909972	76	2
501300	40	FLORE1	Floresta A1	-763052950	32643182	-76.51470833	3.44532833	97	3
501301	40	FLORE2	Floresta B1	-763051978	32642870	-76.51443833	3.44524167	55	3
501350	40	BELAL1	Belalcazar A1	-763115126	32638922	-76.52086833	3.444145	77	2
501351	40	BELAL2	Belalcazar B1	-763113998	32639114	-76.520555	3.44419833	3	1
501401	40	SANPAS2	San Pascual B1	-763139708	32633546	-76.52769667	3.44265167	91	1
501402	40	SANPAS3	San Pascual A2	-763139246	32633792	-76.52756833	3.44272	33	3
501403	40	SANPAS4	San Pascual B2	-763138262	32633594	-76.527295	3.442665	56	1
501405	40	SANPAS6	San Pascual B3	-763136504	32633342	-76.52680667	3.442595	33	1
501450	40	SUCRE2	Sucre B1	-763134416	32636792	-76.52622667	3.44355333	6	2
501451	40	SUCRE4	Sucre B2	-763134932	32638418	-76.52637	3.444005	9	2
501452	40	SUCRE6	Sucre B3	-763135562	32640044	-76.526545	3.44445667	6	2
501501	40	PTCUY4	Petecuy B2	-763140554	32657030	-76.52793167	3.449175	15	1
501502	40	PTCUY6	Petecuy B3	-763141130	32658692	-76.52809167	3.44963667	27	1
501550	40	SANPED2	San Pedro B1	-763147820	32714760	-76.52995	3.4541	78	3
501551	40	SANPED4	San Pedro B2	-763148420	32716164	-76.53011667	3.45449	79	3
501552	40	SANPED6	San Pedro B3	-763149086	32717724	-76.53030167	3.45492333	93	2
501600	40	SNTLIB1	Santa Librada A1	-763212846	32623970	-76.53690167	3.43999167	70	3
501601	40	SNTLIB2	Santa Librada B1	-763213830	32622602	-76.537175	3.43961167	58	3
501602	40	SNTLIB3	Santa Librada A2	-763214574	32621798	-76.53738167	3.43938833	32	1
501603	40	SNTLIB4	Santa Librada B2	-763211934	32624732	-76.53664833	3.44020333	69	1
501650	40	MANZA1	Manzana del Saber A1	-763227348	32605832	-76.54093	3.43495333	64	3
501651	40	MANZA2	Manzana del Saber B1	-763227552	32605538	-76.54098667	3.43487167	47	1
501652	40	MANZA3	Manzana del Saber A2	-763228416	32604668	-76.54122667	3.43463	73	1
501653	40	MANZA4	Manzana del Saber B2	-763226538	32606786	-76.540705	3.43521833	48	3
501700	40	ESTAD1	Estadio A1	-763235382	32554834	-76.54316167	3.43189833	35	1
501701	40	ESTAD2	Estadio B1	-763235490	32554240	-76.54319167	3.43173333	1	3
501702	40	ESTAD3	Estadio A2	-763236270	32553376	-76.54340833	3.43149333	16	2
501703	40	ESTAD4	Estadio B2	-763234620	32555770	-76.54295	3.43215833	8	3
501750	40	TEQUE1	Tequendama A1	-763249308	32524840	-76.54703	3.42356667	36	3
501752	40	TEQUE3	Tequendama A2	-763249938	32523286	-76.547205	3.423135	64	2
501753	40	TEQUE 4	Tequendama B2	-763248666	32525734	-76.54685167	3.423815	8	3
501800	40	LIDO1	Lido A1	-763254072	32508046	-76.54835333	3.41890167	65	3
501801	40	LIDO2	Lido B1	-763253670	32507386	-76.54824167	3.41871833	70	2
501802	40	LIDO3	Lido A2	-763254054	32506360	-76.54834833	3.41843333	85	3
501803	40	LIDO4	Lido B2	-763253730	32509054	-76.54825833	3.41918167	5	3
501850	40	UDP1	Unidad Deportiva A1	-763254246	32454978	-76.54840167	3.41527167	66	3
501851	40	UDP2	Unidad Deportiva B1	-763253658	32452512	-76.54823833	3.41458667	42	1
501852	40	UDP3	Unidad Deportiva A2	-763254306	32453604	-76.54841833	3.41489	41	2
501853	40	UDP4	Unidad Deportiva B2	-763253616	32453976	-76.54822667	3.41499333	69	1
501854	40	UDP5	Unidad Deportiva A3	-763254420	32452116	-76.54845	3.41447667	35	1
501855	40	UDP6	Unidad Deportiva B3	-763253615	32455479	-76.54822639	3.41541083	93	2
501900	40	PLATOR1	Plaza de Toros A1	-763250850	32434494	-76.54745833	3.40958167	2	2
501901	40	PLATOR2	Plaza de Toros B1	-763250814	32435532	-76.54744833	3.40987	34	3
501950	40	PAMPA1	Pampalinda A1	-763248564	32413026	-76.54682333	3.40361833	55	3
501951	40	PAMPA2	Pampalinda B1	-763248396	32413896	-76.54677667	3.40386	51	1
502000	40	REFUG1	Refugio A1	-763247406	32354870	-76.54650167	3.398575	34	2
502001	40	REFUG2	Refugio B1	-763247058	32356106	-76.546405	3.39891833	50	2
502050	40	CALDAS1	Caldas A1	-763245576	32339318	-76.54599333	3.394255	26	3
502051	40	CALDAS2	Caldas B1	-763244964	32338322	-76.54582333	3.39397833	30	1
502100	40	CAPRI1	Capri A1	-763242276	32317526	-76.54507667	3.38820167	25	2
502101	40	CAPRI2	Capri B1	-763241268	32316170	-76.54479667	3.387825	75	3
502103	40	CAPRI4	Capri B2	-763241502	32317808	-76.54486167	3.38828	87	2
502150	40	MELEN1	Melendez A1	-763234002	32237236	-76.54277833	3.37701	14	2
502151	40	MELEN2	Melendez B1	-763234044	32238304	-76.54279	3.37730667	16	2
502200	40	BUITRE1	Buitrera A1	-763223982	32221126	-76.539995	3.372535	24	3
502201	40	BUITRE2	Buitrera B1	-763225710	32222182	-76.540475	3.37282833	11	1
502250	40	UNIVAL1	Univalle A1	-763211850	32214472	-76.536625	3.37068667	61	3
502251	40	UNIVAL2	Univalle B1	-763212666	32215546	-76.53685167	3.370985	49	2
502300	40	UNIV1	Universidades A1	-763145306	32201218	-76.52925167	3.367005	83	2
502301	40	UNIV2	Universidades B1	-763144580	32201524	-76.52905	3.36709	79	3
502302	40	UNIV3	Universidades A2	-763144256	32200558	-76.52896	3.36682167	82	1
502303	40	UNIV4	Universidades B2	-763145822	32201860	-76.529395	3.36718333	56	1
502304	40	UNIVCOM1	Universidades C1	-763141559	32159601	-76.52821083	3.36655583	86	1
502305	40	UNIVCOM2	Universidades D1	-763141556	32160000	-76.52821	3.36666667	97	1
502350	40	VERSALL1	Versalles A1	-763137656	32740104	-76.52712667	3.46114	96	2
502351	40	VERSALL2	Versalles B1	-763136750	32740788	-76.526875	3.46133	94	3
502401	40	L.AMERI2	Las Americas B1	-763130492	32749512	-76.52513667	3.46375333	65	1
502450	40	PRADNOR1	Prados del Norte A1	-763111172	32827678	-76.51977	3.474355	69	3
502451	40	PRADNOR2	Prados del Norte B1	-763110212	32828506	-76.51950333	3.474585	64	3
502500	40	VIPASA1	Vipasa A1	-763101794	32842666	-76.517165	3.47851833	66	1
502501	40	VIPASA2	Vipasa B1	-763100666	32843584	-76.51685167	3.47877333	25	2
502550	40	ALAMOS1	Alamos A1	-763048140	32904440	-76.51337222	3.48456667	44	1
502551	40	ALAMOS2	Alamos B1	-763047742	32904806	-76.51326167	3.48466833	72	2
502600	40	N.LATIR2	Nuevo Latir B1	-762912277	32505968	-76.48674361	3.41832444	97	2
502601	40	N.LATIR1	Nuevo Latir A1	-762912625	32506523	-76.48684028	3.41847861	34	2
502650	40	AMANECE2	Amanecer B1	-762926795	32517183	-76.49077639	3.42143972	30	2
502651	40	AMANECE1	Amanecer A1	-762927172	32517699	-76.49088111	3.42158306	45	2
502700	40	TRONCAL2	Troncal Unida B1	-762940318	32529024	-76.49453278	3.42472889	26	3
502701	40	TRONCAL1	Troncal Unida A1	-762940619	32529557	-76.49461639	3.42487694	9	3
502750	40	CONQUIS2	Conquistadores B1	-763018924	32537126	-76.50525667	3.42697944	69	2
502751	40	CONQUIS1	Conquistadores A1	-763019111	32537580	-76.50530861	3.42710556	37	2
502800	40	VLNUEVA2	Villa Nueva B1	-763036519	32555470	-76.51014417	3.432075	86	2
502801	40	VLNUEVA1	Villa Nueva A1	-763036846	32555786	-76.510235	3.43216278	29	1
502850	40	ST.MONI2	Santa Monica B1	-763050097	32604315	-76.51391583	3.43453194	86	2
502851	40	ST.MONI1	Santa Monica A1	-763050209	32604556	-76.51394694	3.43459889	65	3
502900	40	PRIMITI2	Primitivo B1	-763106760	32616641	-76.51854444	3.43795583	77	2
502901	40	PRIMITI1	Primitivo A1	-763107018	32616950	-76.51861611	3.43804167	12	2
502950	40	C.PALOS2	Cien Palos B1	-763121950	32623052	-76.52276389	3.43973667	94	2
502951	40	C.PALOS1	Cien Palos A1	-763122250	32623207	-76.52284722	3.43977972	7	2
511006	40	C13K89	Cl 13 entre Kr 89 y 100	-763214858	32228936	-76.53746056	3.37470444	40	1
511008	40	C13K87	Cl 13 entre Kr 87 y 89	-763215570	32241757	-76.53765833	3.37826583	73	2
511011	40	C13K86	Cl 13 con Kr 86	-763215492	32248882	-76.53763667	3.380245	13	2
511012	40	C13K831	Cl 13 con Kr 83 y 85	-763217538	32256328	-76.538205	3.38231333	56	2
514020	40	K25C73A	Kr 25 entre Cl 73A y 74	-762847979	32627409	-76.47999417	3.44094694	52	3
514021	40	K25C77	Kr 25 entre Cl 77 y 78	-762838476	32620934	-76.47735444	3.43914833	56	1
514022	40	K25C79	Kr 25 entre Cl 79 y 80	-762830610	32615623	-76.47516944	3.43767306	91	3
514023	40	C80K25	Cl 80 entre Kr 25 y 23	-762824552	32615936	-76.47348667	3.43776	35	3
514024	40	K23C81B	Kr 23 entre Cl 81B y 82	-762818246	32614982	-76.471735	3.437495	33	2
514025	40	K23C83B	Kr 23 entre Cl 83B y 84	-762811622	32611994	-76.469895	3.436665	57	2
514026	40	K23C85A	Kr 23 entre Cl 85A y 85	-762804974	32609000	-76.46804833	3.43583333	3	2
514027	40	K23C96	Kr 23 con Cl 96	-762800011	32606275	-76.46666972	3.43507639	98	2
514028	40	K23C102B	Kr 23 entre Cl 102 y 102C	-762753357	32553956	-76.46482139	3.43165444	51	2
514030	40	C123K23	Cl 123 entre Kr 23 y 23A	-762748688	32532414	-76.46352444	3.42567056	56	2
514031	40	C123K26A	Cl 123 entre Kr 26ABis y 26CBis	-762750197	32520781	-76.46394361	3.42243917	30	3
514032	40	C123K26H	Cl 123 entre Kr 26H2 y 26H3	-762754924	32511765	-76.46525667	3.41993472	83	2
514033	40	C123K26J	Cl 123 entre Kr 26J1 y 26J2	-762800746	32500517	-76.46687389	3.41681028	53	3
514034	40	C123K26R	Cl 123 entre Kr 26R1 y 26T	-762805892	32451144	-76.46830333	3.41420667	74	3
514035	40	C123K27C	Cl 123 entre Kr 27C y 27D	-762810818	32442982	-76.46967167	3.41193944	73	3
514036	40	C123K28B	Cl 123 entre Kr 28B y 28B1	-762811910	32434104	-76.469975	3.40947333	60	1
514039	40	C121K27F	Cl 121 entre Kr 27F y 27D1	-762817667	32444613	-76.47157417	3.4123925	37	3
514041	40	C123K26M	Cl 123 entre Kr 26M3 y 26M1	-762804026	32454264	-76.467785	3.41507333	79	3
514042	40	C123K262	Cl 123 entre Kr 26J2 y 26J	-762759658	32501650	-76.46657167	3.417125	77	3
514043	40	C123K264	Cl 123 entre Kr 26H1 y 26HBis	-762754120	32512930	-76.46503333	3.42025833	16	3
514044	40	C123K26B	Cl 123 entre Kr 26B y 26ABis	-762749206	32522422	-76.46366833	3.422895	83	3
514045	40	K23C120Q	Kr 23 entre Cl 120Q y 120R	-762748084	32532496	-76.46335667	3.42569333	100	2
514046	40	K23C120C	Kr 23 entre Cl 120C y 120B	-762747730	32540254	-76.46325833	3.42784833	89	2
514047	40	K23C114	Kr 23 entre Cl 114 y 112	-762749925	32546153	-76.46386806	3.42948694	17	3
514048	40	K23C1022	Kr 23 entre Cl 102B y 102	-762753520	32555542	-76.46486667	3.432095	84	1
514049	40	K23C98A	Kr 23 entre Cl 98A y 98	-762757516	32605388	-76.46597667	3.43483	9	1
514050	40	K23C87	Kr 23 entre Cl 87 y 86	-762805592	32609360	-76.46822	3.43593333	55	3
514051	40	K23C84	Kr 23 entre Cl 84 y 83B	-762810884	32611832	-76.46969	3.43662	73	2
514052	40	K23C83	Kr 23 entre Cl 83 y 81B	-762818432	32615546	-76.47178667	3.43765167	82	3
514053	40	C80K23	Cl 80 entre Kr 23 y 25	-762824630	32616452	-76.47350833	3.43790333	100	1
514054	40	K25C80	Kr 25 entre Cl 80 y 79	-762830205	32616183	-76.47505694	3.43782861	50	1
514055	40	K25C771	Kr 25 entre Cl 77 y 78	-762838020	32621292	-76.47722778	3.43924778	77	1
514056	40	K25C74	Kr 25 entre Cl 74 y 75	-762845836	32626603	-76.47939889	3.44072306	41	2
514058	40	K15C74	Kr 15 entre Cl 74 y 73	-762859604	32647250	-76.48322333	3.44645833	85	2
514067	40	T103C56B	Tr 103 entre Cl 74 y Kr 26B2	-762850482	32616821	-76.48068944	3.43800583	12	1
514068	40	T103C76	Tr 103 entre Cl 76 y 77	-762847679	32608867	-76.47991083	3.43579639	19	2
514069	40	T103C79	Tr 103 entre Cl 79 y 79A	-762843640	32556724	-76.47878889	3.43242333	78	1
514070	40	T103D26I	Tr 103 entre Dg 26I y 26I1	-762839114	32544334	-76.47753167	3.42898167	99	3
514071	40	T103D26P	Tr 103 entre Dg 26P3 y 26P4	-762839528	32529160	-76.47764667	3.42476667	93	2
514072	40	T103D261	Tr 103 entre Dg 26P8 y 26P9	-762840681	32522263	-76.47796694	3.42285083	20	3
514073	40	T103D263	Tr 103 entre Dg 26P14 y 26P15	-762842113	32514396	-76.47836472	3.42066556	56	3
514074	40	C102K27C	Tr 103 entre Kr 27C y 27D	-762844666	32500292	-76.47907389	3.41674778	32	1
514075	40	K28C101	Kr 28 entre Cl 101 y 100	-762848748	32455954	-76.48020778	3.41554278	40	2
514078	40	K28C88	Kr 28 entre Cl 88 y 83	-762902138	32508492	-76.48392722	3.41902556	40	1
514079	40	K28C79	Kr 28 entre Cl 79 y 73	-762909853	32515895	-76.48607028	3.42108194	87	2
514080	40	C73K8	Cl 73 con Kr 8	-762857833	32705052	-76.48273139	3.45140333	22	2
514081	40	K27C76	Kr 27 entre Cl 76 y 77	-762902900	32523373	-76.48413889	3.42315917	9	2
514082	40	C73K7R	Cl 73 entre Kr 7RBis y 7S	-762855782	32714838	-76.48216167	3.45412167	33	1
514083	40	K27C84	Kr 27 entre Cl 84 y 85	-762855406	32516210	-76.48205722	3.42116944	94	3
514084	40	K27C86	Kr 27 entre Cl 86 y 91	-762850447	32511546	-76.48067972	3.41987389	9	2
514085	40	T103D262	Tr 103 entre Dg 26P17 y 26P16	-762841929	32512028	-76.47831361	3.42000778	33	3
514086	40	T103D264	Tr 103 entre Dg 26P9 y 26P10	-762839963	32522362	-76.4777675	3.42287833	55	2
514087	40	T103C94	Tr 103 entre Cl 95 y 92	-762837479	32535346	-76.4770775	3.426485	1	3
514088	40	T103C84	Tr 103 entre Cl 84 y 80F	-762839012	32546441	-76.47750333	3.42956694	23	1
514089	40	T103C80A	Tr 103 entre Cl 80A y 80	-762842063	32554762	-76.47835083	3.43187833	3	3
514090	40	T103C78B	Tr 103 entre Cl 79 y 78	-762843431	32559011	-76.47873083	3.43305861	51	2
514091	40	T103C772	Tr 103 entre Cl 77 y 76	-762847087	32609097	-76.47974639	3.43586028	90	1
514095	40	C73K7M	Cl 73 entre Kr 7M y 7LBis	-762853892	32722788	-76.48163667	3.45633	98	3
514096	40	C73K7JB	Cl 73 entre Kr 7JBis y 7J	-762852350	32729970	-76.48120833	3.458325	27	2
514097	40	C73K7B	Cl 73 entre Kr 7B y 7BBis	-762847927	32754347	-76.47997972	3.46509639	98	3
514098	40	C73K7G	Cl 73 entre Kr 7G y 7FBis	-762850184	32737926	-76.48060667	3.460535	23	3
514099	40	C73K7D	Cl 73 entre Kr 7D y 7C	-762848163	32747227	-76.48004528	3.46311861	66	2
514100	40	C84K7C	Cl 84 entre Kr 7C y 7BBis	-762839337	32755304	-76.47759361	3.46536222	37	3
514104	40	K7CC86	Kr 7C entre Cl 86 y 84	-762837513	32755165	-76.47708694	3.46532361	31	2
514106	40	C81K7E	Cl 81 entre Kr 7E y 7EBis	-762844487	32741689	-76.47902417	3.46158028	22	3
514109	40	K7CC72	Kr 7C entre Cl 72 y 70	-762858950	32748504	-76.48304167	3.46347333	24	3
514110	40	K7CC70	Kr 7C entre Cl 70 y 72A	-762858554	32748096	-76.48293167	3.46336	81	1
514111	40	K7CC73	Kr 7C entre Cl 73 y 72C	-762850118	32751552	-76.48058833	3.46432	22	1
514112	40	K7CC72A	Kr 7C entre Cl 72A y 73	-762850178	32750934	-76.480605	3.46414833	17	2
514113	40	C73K7C	Cl 73 entre Kr 7C y 7ABis	-762846140	32756220	-76.47948333	3.46561667	76	3
514114	40	C34K7	Cl 34 entre Kr 7 y 8	-763044004	32718534	-76.51222333	3.45514833	63	3
514115	40	K8C34	Kr 8 entre Cl 34 y 26	-763055523	32713245	-76.51542306	3.45367917	81	1
514116	40	K8C27	Kr 8 entre Cl 27 y 26	-763101642	32711983	-76.51712278	3.45332861	55	2
514119	40	K8C391	Kr 8 entre Cl 44 y 36	-763025992	32713452	-76.50722	3.45373667	4	1
514120	40	K8C392	Kr 8 entre Cl 39 y 41	-763025638	32712480	-76.50712167	3.45346667	96	3
514121	40	K8C44	Kr 8 con Cl 44	-763011927	32711454	-76.50331306	3.45318167	67	2
514125	40	K8C51	Kr 8 con Cl 51	-762958532	32710214	-76.49959222	3.45283722	70	2
514126	40	K8C492	Kr 8 entre Cl 49 y 50	-763001488	32709570	-76.50041333	3.45265833	43	3
514128	40	K8C522	Kr 8 entre Cl 52 y 53	-762952006	32708932	-76.49777944	3.45248111	34	1
514129	40	K8C561	Kr 8 con Cl 56	-762944202	32709390	-76.49561167	3.45260833	97	1
514130	40	K8C562	Kr 8 entre Cl 54 y 56	-762945114	32708592	-76.495865	3.45238667	66	1
514132	40	K8C582	Kr 8 entre Cl 58 y 59	-762935400	32709114	-76.49316667	3.45253167	5	3
514133	40	K8C62	Kr 8 entre Cl 62 y 61	-762923082	32709825	-76.489745	3.45272917	60	2
511017	40	K100C162	Kr 100 Con Cl 16 C.C. Jardin Plaza	-763144880	32201796	-76.52913333	3.36716556	51	3
511018	40	K98C25	Kr 98 entre Cl 25 y 28	-763122979	32214636	-76.52304972	3.37073222	17	2
511019	40	C42K84	Cl 42 entre Kr 84 y 85	-763113615	32259109	-76.52044861	3.38308583	80	3
511020	40	C25UAUT	Cl 25 entre Kr 114A y 118	-763124606	32111702	-76.52350167	3.35325056	100	3
511021	40	C25UAUT2	Cl 25 entre Kr 117 y 114A	-763123902	32111430	-76.52330611	3.353175	14	1
511031	40	K127C18A	Kr 127 entre Cl 18A y 18	-763155407	32000370	-76.5320575	3.33343611	43	2
511033	40	C25LILI	Cl 25 La 14 Valle del Lili	-763128978	32207727	-76.52471611	3.36881306	66	3
